[
  {
    "TypeName": "BigBone",
    "Namespace": "AFKPETS.NPCs",
    "Name": "大骨头",
    "ShopButton1": "",
    "ShopButton2": "",
    "ChatTexts": [],
    "TownNpcNames": []
  },
  {
    "TypeName": "Bone2",
    "Namespace": "AFKPETS.NPCs",
    "Name": "金属骨头",
    "ShopButton1": "",
    "ShopButton2": "",
    "ChatTexts": [],
    "TownNpcNames": []
  },
  {
    "TypeName": "BossHunterMerchant",
    "Namespace": "AFKPETS.NPCs",
    "Name": "BOSS猎人",
    "ShopButton1": "奇物商店",
    "ShopButton2": "更改商店样式",
    "ChatTexts": [
      "为什么",
      "不在卖武器？",
      "也许是为了锻造那把剑, ",
      "如果你问的到点子上的话,那我的话可能对你很有帮助.",
      "这种时候别试着召唤老怪.所有东西都会在你打的时候打扰你.",
      "*笑* 这里到处都散落着内脏和鲜血,多棒啊?",
      "那晚留给我的气味印象只剩下腐烂的血和肉了.",
      "如果你在某日里看到一座通体猩红的巨大洋宅,听我的别进去,除非你想让自己在这个世界上最后见到的东西变成银色飞刀和金色怀表。",
      "你不觉得这月亮看起来很漂亮吗?",
      "*把一个眼球放在玻璃瓶上* 探险者，为什么你看上去如此恐慌？这是给Aya生日准备的。",
      "如果你现在前往森林的话,也许会遇到许多'很有价值'的敌人.",
      "令人奇怪的是，新生代吸血鬼们似乎绝大多数都不认识卡尔斯和其他吸血鬼当中的中流砥柱,甚至连迪奥都不认识. 不过你还蛮幸运的. 只有那家伙的「世界」能够干掉你. 你问我怎么活下来的? 哦,嗯,这是个秘密.",
      "让那些火星人见识一下人类有多强.",
      "Do you read todays Slime News? In there it says that politician slime won the election against pinky and pinky the biologist return to it's lab.",
      "You ask me how I forge it? Well long ago I do some experiment with chlorophyte. I see that when you give electric it reacts and then I make this beauty but I guess giving electric also makes it lose some of its pickaxe power.Why I do it? Because I'm bored.",
      "I used to search the book which Shinigami's use in legends and I archieve to find it but I afraid of it's potential and sealed it to the devourer of fools. What you ask me how to find it, well I can't tell this to you.",
      "Did you ask me I've ever been visit Aincrad before? I used to hire a shop from Mr. Akihiko in floor 82nd but actually I never see any person there and one day the world start to collapse and I hardly save my life. Also I still have few Cor for my money collection.",
      "Maybe a water filled with enough spiritual power may form the shatted soul into one.",
      "You ask me how to form the dream as an effect egg? Well, for that you need to have the diary and bound the dreams with the soul of mechanical bosses and some dark soul to bound it with the terror of nightmares which may be free after their master will be defeated.. Also you need to feel like Madotsuki for that which you need to have cursed debuff and be near to bed.",
      "Legends say a guide which come out from the weapon may help you to find it eventhrough the guide is also lost.",
      "*Holds mirror to Wegee* Now what you want adventurer?",
      "I can understand what you feel big boy, your mighty armies has been crumbled by two plumper and mushroom people, and also you and your family have humiliated by them. But still I don't understand why you even have a axe in bridge and you don't use it? ",
      "Sorry bowser , but your Peach is in another universe. Just kidding don't get mad.",
      "Sorry baka's are not allowed. Just kidding for me you are the strongest fairy *脸红*.",
      "Are you happy for killing inocent people Ellen?",
      "I used to feed one of them too.",
      "*脸红* 你还记得很久以前我来看过你吗? 为什么我现在不能来? 让我们谈谈…我曾经失去了某物,但感谢你的来访, 我曾失去过你,朋友. 冒险者,去买你想要的东西,等会直接把钱放在那就好. 我们可有很多事情可有谈呢.",
      "老朋友，很高兴能在这里见到你。",
      "I think you should wear spiny shell helmet turtle, that prevents plumper to play with you.",
      "I used to have a dog too, but one day Duke Fishron ate it.",
      "I used to have a dog too . Then Duke Fishron ate it.",
      "if you are looking for effects I can help you.",
      "It's honor to meet you Mr. Wright . I heard you have solved lots of impossible case.",
      "抱歉，我不卖意大利面。",
      "*脸红* 你想过来看看我吗? 我想我这里还留了瓶你最喜欢的血样. 我们可有很多事情可有谈呢. 冒险者,去买你想要的东西,等会直接把钱放在那就好.",
      "*frightened* Please don't kill me. I never let Flandre go out. ",
      "Sorry pal, I don't remember any swamp in this world.",
      "How is your day Mr. Afton? I know what you have done that girl but one day she will also bring you doom.",
      "There is discount on rat tail. Buy one today.",
      "I think your healing abilities are better than nurses.",
      "There is discount on rat tail . Buy one today.",
      "Can you help me to learn warp?",
      "*Uses Neon wall spell* Adventurer now you can buy what you want.",
      "Legends says in the end it will rise the ancient cult once again.",
      "What? Lady you are in a different dimention since there is no apocalypse in this week.",
      "Sorry but I haven't seen Cloud lately, maybe he's still after Sephiroth",
      "Do you ask does the lunatic cultist and other cultists are templar? Well, according to me they also count as a templar but I feel the meaning of the templar between yours and mine dimention might be different.",
      "Adventurer you look confused. In their dimention the true hero and true villain reincarnates so there are multiple Links in hitory as same as there are multiple Ganondorf in the history.",
      "Eyes of yours are filled with hate and madness. What happened to you?",
      "It's always nice to meet adventurers from another dimentions",
      "It looks so cute . Where did you find it?",
      "I feel sorry for what happen to you kid . I hope you feel better now.",
      "Do you ever think to wash your pet ?",
      "Sorry friend but I don't accept time shards as a currency.",
      "It's how nice that we are both used to be adventurer and now we have shops.",
      "It's fun that there is no time shard in this world other then few pieces I have seen before",
      "This much power. I hope I'm still safe.",
      "You ask why there is a small mirror over there. Well I used it to protect myself from Wegees and medu- I mean medics.",
      "I hope it won't see you as it's enemy",
      "Hello Zelda how are you doing ? Just kidding Link please put that sword down.",
      "I'm not sure but I think demon altar may also work for the sacrifice since both of the altars work with the high contcentration of dark magic that they contains.",
      "Hello how is your life going in Gensokyo ? You can come this place when you want old friend . You are always welcome here",
      "哦我操！你不要杀死小丑！小丑杀你！！！！！",
      "不要去碰那个 *奇怪的箱子掉到地上* XANXXE 1NT3GR1T13S : % 042.01 危险！脑损伤！嗷！嗷！嗷！！重试！",
      "What ? Is that really you ? That smug smile ... Welcome to our town sukima youkai , I hope you will enjoy this place .",
      "Sorry, dolls are not allowed . Wait don't get angry I can make an exception today",
      "May I ask you a question ? How Hourai Elixir taste like ?",
      "I remember you from Scarlet Mansion . How is your life going old friend ?",
      "That katana looks not like the ones that in this place even I'm not sure you are a human or ghost but your behaviour make me sure you are special.",
      "Hello , did I see you before in Netherworld ?",
      "It looks so cute . I hope you can evolve it sice in this world they don't fight and as a result they can't gain exp .",
      "I hope it won't try to bite me with that mouth",
      "How you even evolve Ralts ?",
      "It looks calm . That's really strange since I don't see Rayquaza around .",
      "I hope it won't learn you also are dungeoneer .",
      "*Wears gas mask* Now what you want adventurer ?",
      "Legend says it only appear in peaceful times but I don't think monsters care legends .",
      "It's honor to meet a peaceful person like you in this world . It's always nice to see people that are aganist to fight but in this world you can't try to make a tea party with moon lord friend . ",
      "You ask me is Arno boy or girl ? Don't you even see her ?",
      "Sorry but I have no any specific medicine left. Last time I have I trade them with another survivor in a pig town",
      "Thank you for your kindness friend, I feel good. And how are you?",
      "抱歉，我没找到你姐妹",
      "抱歉，我没找到你姐妹",
      "Sorry , I don't have any daemon edge , maybe you should look Oni Hot Springs .",
      "Is it time for mystery monday ?",
      "Do you ask who are mudkip warriors? They are ambassadors of Lord Derpo.",
      "I hope it don't see you as opponent or else prepare to smash.",
      "It looks special because using green onion as a sword is not a typical swordman can do.",
      "Thivery is restricted in this area.",
      "It looks cute. Where do you find him?",
      "Sorry but I didn't sell any type of fish but I can talk with angler if you want.",
      "*looks excited and happy*Is this real? Could you please sing a song for me, I haven't listen any vocaloid song for a long time.",
      "You remind me one of my old friend ... Wait is that you Alice? I miss you so much. After I heard what have done to you from your father, I slaughter every cultist I see but I can't find you. Adventurer thank you so much. Also you can buy what you want and put money there we will talk about past.",
      "So much bakaness. How you can even protect your brain?",
      "No I don't tell you you can find Yukari with pink umbrella and pink umbrella has a chance to drop from dungeon guardian when Reimu will be with you and you have the living void buff ... Wait did I say anything? This bakaness level is really harmful for humans.",
      "No I don't tell you you can craft broken hero armor by throwing Mountain Dew into water near to stardustpillar when there is blood moon.",
      "No I don't tell you forgotten gun has a chance to drop from queen bee while cabbit is being with you.",
      "No I don't tell you bringer of ancient wisdom has a chance to drop from plantera while Junko is being with you.",
      "No I don't tell you for making a sacrifice for lord Fury you need to have traveling merchant with you and you need to bless your soul with the flames of Fury.",
      "What? Do you come to visit this place old friend? It make me really happy to see you one more time.Adventurer buy what you want and put money there, also if you want you can drink some tea with us.",
      "Look at her cuteness. I don't even think that making hybrid species from cat and rabbit can be possible",
      "你怎么找到它的？ Legends tell that it was once built with the power of the ancient lord Blah. Maybe one day he will return to control this lands one more time.",
      "He look like a little cubic but still he looks dangerous.",
      "I feel sorry for your family great warrior. Accept my void katana as a gift. It may help you to take reverenge for what they have done to you.",
      "What, white flash? Sorry but I think you just visit another universe. Don't look confused friend, I used to do do that too. ",
      "Sorry friend but I don't sell any artificial eye. Maybe you should try mechanical eye but be aware of the twins. ",
      "Be careful adventurers about using any fire type item with bobombs. I nearly killed myself when I accidentally put torch near to bobomb.",
      "It's honor to meet you princess. Also do you still remember how to make Hourai Elixir?",
      "I hope one day you will find a way to return home friend.",
      "Shatter the sun or not shatter the sun, I think that's something philosophical rather than rational.",
      "Greetings magician. You ask which dimention is this, well it is named as Terraria maybe this helps.",
      "Sorry but boundary of this universe is strong enough to prevent you make wormhole to another ones magician.",
      "I think Undyne go to beach friend why you ask?",
      "There is no security camera in this world.Why you still continuing to pose?",
      "Disturbing Sun and Moon is prohibited in this world.",
      "Maybe there is still coin left in it.",
      "How does it not even pop? Maybe it is formed by the dreams of the fallen nation.",
      "Sorry but there is no pikachu here.",
      "Sorry but you should ask dryad for more berries since I'm out of power berries.",
      "Maybe you should try clentaminator with green solution for your village friend.",
      "Wait are you also celestial? You seem more earthe- sorry don't want to make you angry. Please put that sword down.",
      "Thank you for cleaning my room.",
      "Greetings the hero of light. I believe you can balance the light and dark which adventurer disturbed.",
      "I didn't expect you to see here prince. How can I help you?",
      "Are you looking for Kris? If you find Kris, give this to him as a present from me.",
      "Sorry but I don't sell any pen since I can't allow you to use that book because of it's power but still we have apples.",
      "How do you even find that book? Still I'm happy that the secret seal in the book didn't break. It means you can't use its true potential adventurer.",
      "This cute species once brought by ancient warlord Audrina2k to bless the hearts of these people with the kindness which they carry deep inside their souls.",
      "Sorry but I'm not spinning the world. Maybe you should visit nurse.",
      "Sorry but all bunnies in this dimention are critters. I haven't seen any rabbit youkai living in this world.",
      "Wait are you looking for Yukari? I think she will find you.",
      "Is the room temperature increased?",
      "Greetings huntress, how can I help you today?",
      "I feel sorry for your mother. Once she was my friend. What you ask me my age? The time in different universes move in a different flow huntress.",
      "What, I didn't educated in academy why do you ask?",
      "How a weapon can be both melee, ranged and throwing?",
      "If one day you want to trade any card I will be happy to exchange them with some goods.",
      "According to the legends Lihzahrds asked for ancient warlord Mendeleev to bless them with her knowledge for protection and this cute thing and it's bigger brother was born from both from the forges of the ancient nation and wisdom of the warlord. Too sad after centuries later they forgot who kindly helped them.",
      "How even a dog become pink?",
      "I remember you with your safety helmet, did you lose it friend?",
      "*他开始流鼻血* 等等，什么？？你怎么找到那张卡的？？？",
      "Greetings friend. Thank you for your kindness I miss you too.You ask where is Cirno? Let me check the air with bakameter to see in which direction is that wave come stronger.",
      "Please I'm happy with my dreams.",
      "No I'm not looking that fire again. Last time you make me destroy an entire village with that.",
      "Thank you so much for what you have done for me. Now I don't feel ill anymore.",
      "Adventurer we don't need nurse anymore since she is medical genious.",
      "*脸红* You know what is funny adventurer, people in the town think drayad is beautiful. If they know her I guess nurse need to stop their bleed from their noses.",
      "May I borrow one of your masks?",
      "Sorry but I don't have any pokemon food but I think it will also like mouse.",
      "Wait, if that thing is in this world does Kira still alive?",
      "I also feel happy to see the spring, I think we should celebrate it.",
      "Well I don't really know where the Yukari is but I think she will find you soon.",
      "It's honor to meet a scientist like you.",
      "I miss good old days friend. I remember our first meet when you accidentally shoot me.",
      "Sorry but I don't know where Chang'e is. Maybe you should ask Moon Lord.",
      "Greeting  youkai of darkness, if you want to see around I can show you this universe also we find something for you to eat.",
      "I think you can read my mind but still I miss you friend.",
      "Don't look me like that. If you help them to kill Alice I will feed Wall of Flesh with your corpse.",
      "How you even change the direction? I looks really strong.",
      "*脸红* It's strange that people think Rokurokubi are not cute.",
      "Greetings swordmaster. How I can help you and adventurer today?",
      "Wait do you come this place to visit me? I feel really happy to see you friend.",
      "Is that true that all lullabies around the world inspired from your mellodies?",
      "You don't need to be alone friend. We are care about you friend.",
      "Greetings. Sorry but I haven't seen Ib for a long time.",
      "Sorry friend but I don't know how to go Bikini Bottom from this world. Maybe just try to go ocean and check if Bikini Bottom is in there.",
      "Wait are you really a doctor?",
      "If you are still looking for news story I can tell you about this universe",
      "*looks little scared* What you want adventurer?",
      "*Sorry but I don't know where Suwako is. Maybe she is chasing Cirno for that frozen frogs.",
      "People think eye of medusas are dangerous but they know nothing about her scarlet eyes.",
      "你想要我帮你找到你的姐妹们吗？",
      "你想要我帮你找到你的姐妹们吗？",
      "你想要我帮你找到你的姐妹们吗？",
      "It was once forged by the lord of the all Terraria enthusiasts. It was the guardian of his couch and his universe. That's why it still looks for it's master because of it's care and it want to have some nice time with him.",
      "你怎么能把勺子弄弯?",
      "你应该留着它的羽毛，因为在传说中，这些羽毛给它的持有者带来快乐.",
      "那真是超梦吗？你是怎么找到它的?",
      "它怎么醒着呢?",
      "能把你的神奇宝贝召唤出来吗?我现在动不了了.",
      "它看起来会保护所有泰拉瑞亚爱好者，因为它是大师. 不过它似乎不再拥有它的力量了.",
      "对不起，但你在不同的宇宙，所以我不确定恶魔是不是认得出你.",
      "我认为这个宇宙没有任何可以穿越次元壁的传送门.",
      "那真的是你吗? 我超爱你乐队的每首歌.",
      "我希望有一天他们会给你寄一封请柬，邀请你去破坏某物.",
      "它看起来真可爱.",
      "我觉得你一点儿都不安全.",
      "等等，你也收到了一个“一起来破坏”的邀请?",
      "你为什么问我那件事? 我不记得除了我之外还有谁也见证过.",
      "我觉得天气会影响它.也许它甚至可以改变它的形态.",
      "你能试着让它描绘出月亮领主幽灵般的死神攻击吗?",
      "我过去常去另一个世界抓这只神奇宝贝.你是怎么找到它的?",
      "等等,你是怎么来到这个宇宙的?",
      "向年轻人问好.你在找谁?",
      "别那样看着我.",
      "什么? 我们都不在地下室,我也不是监护人. 当你不准备去另一个地方时,就会发生这种情况.",
      "对不起,我没有墓碑.也许你该问问冒险家.",
      "对不起,我没看到盾牌骑士.也许你应该问问幽灵骑士.",
      "它看起来实在是太可爱了. 你是怎么找到它的?",
      "抱歉但我今天真的没看到琪露诺呀? 她是不是又出去整那些冻青蛙了?",
      "嘿等等,你知道那该怎么玩吗? 看着神奇宝贝自己训练自己并让自己出去决斗的画面实在太美了.",
      "你有给任何骷髅上过小号课吗?",
      "唔,我已经很久没有和承太郎联系过了.",
      "向导,见到你真好. 我希望你不要告诉玩家任何有关于八云紫的信息.",
      "抱歉但我真的不喜欢玩俄罗斯轮盘赌.",
      "天啊。你真的要用审计的力量吗?",
      "贵安,留琴小姐和mimi-chan小姐. 我能为你们做些什么吗?",
      "贵安,冒险者. 你问我为什么这个宇宙和你的宇宙不一样? 每个宇宙都有它自己的现实结构,它影响着时间和空间的行为.",
      "这是真的吗? 这个物种曾经是被愤怒之王从异界的岛屿带到泰拉瑞亚大陆. 你怎么找到它的?",
      "我为以前发生的事感到难过.",
      "你的替身看上去很有意思. 你有没有尝试过控制人体内血液中的铁元素?",
      "*他开始流鼻血了* 这是不是有点太多了?",
      "你当然可以呆在这,想待多久待多久我的朋友. 我曾经没法阻止那件事的发生...但如果是现在,我绝对会阻止它的.",
      "很抱歉但我真的不知道该怎么让你的躯体和灵魂联系更紧密些, 或许我该试试用魔法.",
      "对不起,但是我这里真的没有什么方解石.",
      "从前有一种半人半狐的古老文化. 这种文化是由自然的神秘主义和彩虹的艺术所塑造的. 那时，他们从他们的信仰对象,Fabsu那里掳掠他们的权能和智慧. 尽管时间如此残酷，他们从她那里获得的知识之光仍然照亮了种族的道路.",
      "每个英雄背后都有着一位撑起他的炼金术师.如果你没有的话你也应该去找一个.",
      "注意一点,别在非猎季狩猎BOSS. 我们可不想破坏生态平衡. 如果你没有双子魔眼可杀的话就不要把眼珠子塞进瓶子里. ",
      "我曾经和你一样是个冒险者,直到我接下了一个挑战——在白天只用铜质短剑同时挑战十个机械骷髅王. ",
      "你知道吗?在很久很久以前,蜥蜴人文化还没有衰败的时候,它们曾经还有过蓝色圣甲虫信仰. ",
      "如果你想在战斗中获得更多优势的话,你应该去试着多准备些药剂的.",
      "看起来你想要些新武器. 没事,至少现在为止你做得很对.",
      "你应该稍微注意一下那些具有强大精神力的物件,比如说像是魔咒啊、精神宝石啊、手机壳之类的...",
      "我曾经去博丽神社参拜过, 也去过海军军区, 但是有一天 *突然开始用一种古老的语言对你说话*",
      "你问我怎么找到八云紫是吗? 探险者,我有些秘密是不能公之于众的.",
      "向你问好,冒险者. 要不要看看我这里有什么你需要的?",
      "你杀的BOSS越多, 我橱窗里的商品也就会越多."
    ],
    "TownNpcNames": [
      "杰克",
      "埃德加",
      "杰克"
    ]
  },
  {
    "TypeName": "ChaosCultist",
    "Namespace": "AFKPETS.NPCs",
    "Name": "梦魇拜月邪教徒",
    "ShopButton1": "",
    "ShopButton2": "",
    "ChatTexts": [],
    "TownNpcNames": []
  },
  {
    "TypeName": "Worm",
    "Namespace": "AFKPETS.NPCs",
    "Name": "",
    "ShopButton1": "",
    "ShopButton2": "",
    "ChatTexts": [],
    "TownNpcNames": []
  },
  {
    "TypeName": "ChaosDestroyer",
    "Namespace": "AFKPETS.NPCs",
    "Name": "毁灭者之影",
    "ShopButton1": "",
    "ShopButton2": "",
    "ChatTexts": [],
    "TownNpcNames": []
  },
  {
    "TypeName": "ChaosDestroyerH",
    "Namespace": "AFKPETS.NPCs",
    "Name": "",
    "ShopButton1": "",
    "ShopButton2": "",
    "ChatTexts": [],
    "TownNpcNames": []
  },
  {
    "TypeName": "ChaosDestroyerB",
    "Namespace": "AFKPETS.NPCs",
    "Name": "",
    "ShopButton1": "",
    "ShopButton2": "",
    "ChatTexts": [],
    "TownNpcNames": []
  },
  {
    "TypeName": "ChaosDestroyerT",
    "Namespace": "AFKPETS.NPCs",
    "Name": "",
    "ShopButton1": "",
    "ShopButton2": "",
    "ChatTexts": [],
    "TownNpcNames": []
  },
  {
    "TypeName": "ChaosDuke",
    "Namespace": "AFKPETS.NPCs",
    "Name": "公爵之影",
    "ShopButton1": "",
    "ShopButton2": "",
    "ChatTexts": [],
    "TownNpcNames": []
  },
  {
    "TypeName": "ChaosKingSlime",
    "Namespace": "AFKPETS.NPCs",
    "Name": "君王之影",
    "ShopButton1": "",
    "ShopButton2": "",
    "ChatTexts": [],
    "TownNpcNames": []
  },
  {
    "TypeName": "ChaosPlantera",
    "Namespace": "AFKPETS.NPCs",
    "Name": "绿花之影",
    "ShopButton1": "",
    "ShopButton2": "",
    "ChatTexts": [],
    "TownNpcNames": []
  },
  {
    "TypeName": "DarkSlimeWatcher",
    "Namespace": "AFKPETS.NPCs",
    "Name": "监视者???",
    "ShopButton1": "",
    "ShopButton2": "",
    "ChatTexts": [],
    "TownNpcNames": []
  },
  {
    "TypeName": "EnragedCreeper",
    "Namespace": "AFKPETS.NPCs",
    "Name": "愤怒爬行者",
    "ShopButton1": "",
    "ShopButton2": "",
    "ChatTexts": [],
    "TownNpcNames": []
  },
  {
    "TypeName": "EnragedEyeofCthulhu",
    "Namespace": "AFKPETS.NPCs",
    "Name": "克苏鲁的梦魇之眼",
    "ShopButton1": "",
    "ShopButton2": "",
    "ChatTexts": [],
    "TownNpcNames": []
  },
  {
    "TypeName": "FallenAngel",
    "Namespace": "AFKPETS.NPCs",
    "Name": "坠落天使",
    "ShopButton1": "天使商店",
    "ShopButton2": "",
    "ChatTexts": [
      "我也觉得",
      "的灵魂被祝福了。",
      "How do you truth ",
      " ? I can still feel his sinned soul.",
      "Why everyone are looking so cursed?",
      "*looks frightened* In our village there are no such horrific creatures",
      "I'm not sure why but it looks like humans affect from the shine of the moon",
      "In my village we can stop blood moon with holy magic but sadly I haven't learned them.",
      "Where does they come from?",
      "I heard there was once a happy spirit which then lose it's sanity. I want to ask you only one thing. Could you not try to figt with it since I feel a strange but kind reality caused by that thing.",
      "Greetings. What are you looking for friend?",
      "I'm not sure what caused but something shined my eyes.",
      "I feel one of my wing is broken. Could you help me?",
      "I missed where I come from.",
      "I haven't visited the surface for 600 years. I feel this place have been changed quite a lot.",
      "Do you also want to go to my village? Sorry human but that place is restricted to humans.",
      "Maybe one day my wings will be healed and I can visit my town again.",
      "Did you saw any angel other than me?",
      "I feel boss hunter merchant is looking for someone",
      "Strangely I feel something is having fun but I'm not sure what is that thing.",
      "I feel the something is awakening the ancient trio. You should be careful since I can feel their wrath.",
      "I feel an ancient soul disturbed with the sins of the world. Maybe you should be careful while slaying the monster since it's soul burning with judgement and determination. Strangely I feel it's reality have been changed a little.",
      "After you beat down the guardians maybe I can awake the forgotten angelic artifact with the shattered piece of their souls.",
      "Hello. How are you?"
    ],
    "TownNpcNames": [
      "安吉拉",
      "玛丽",
      "Ib",
      "Faith",
      "觉",
      "布洛斯"
    ]
  },
  {
    "TypeName": "Worm2",
    "Namespace": "AFKPETS.NPCs",
    "Name": "",
    "ShopButton1": "",
    "ShopButton2": "",
    "ChatTexts": [],
    "TownNpcNames": []
  },
  {
    "TypeName": "FlyingLeech",
    "Namespace": "AFKPETS.NPCs",
    "Name": "飞水蛭",
    "ShopButton1": "",
    "ShopButton2": "",
    "ChatTexts": [],
    "TownNpcNames": []
  },
  {
    "TypeName": "FlyingLeechHead",
    "Namespace": "AFKPETS.NPCs",
    "Name": "",
    "ShopButton1": "",
    "ShopButton2": "",
    "ChatTexts": [],
    "TownNpcNames": []
  },
  {
    "TypeName": "FlyingLeechBody",
    "Namespace": "AFKPETS.NPCs",
    "Name": "",
    "ShopButton1": "",
    "ShopButton2": "",
    "ChatTexts": [],
    "TownNpcNames": []
  },
  {
    "TypeName": "FlyingLeechTail",
    "Namespace": "AFKPETS.NPCs",
    "Name": "",
    "ShopButton1": "",
    "ShopButton2": "",
    "ChatTexts": [],
    "TownNpcNames": []
  },
  {
    "TypeName": "Guitar",
    "Namespace": "AFKPETS.NPCs",
    "Name": "诅咒吉他",
    "ShopButton1": "",
    "ShopButton2": "",
    "ChatTexts": [],
    "TownNpcNames": []
  },
  {
    "TypeName": "NiceProbe",
    "Namespace": "AFKPETS.NPCs",
    "Name": "暗影探测器",
    "ShopButton1": "",
    "ShopButton2": "",
    "ChatTexts": [],
    "TownNpcNames": []
  },
  {
    "TypeName": "RalseiDummy",
    "Namespace": "AFKPETS.NPCs",
    "Name": "训练假人",
    "ShopButton1": "",
    "ShopButton2": "",
    "ChatTexts": [],
    "TownNpcNames": []
  },
  {
    "TypeName": "RollingSlimeBall",
    "Namespace": "AFKPETS.NPCs",
    "Name": "翻滚史莱姆球",
    "ShopButton1": "",
    "ShopButton2": "",
    "ChatTexts": [],
    "TownNpcNames": []
  },
  {
    "TypeName": "SlimeGuardian",
    "Namespace": "AFKPETS.NPCs",
    "Name": "护卫史莱姆",
    "ShopButton1": "",
    "ShopButton2": "",
    "ChatTexts": [],
    "TownNpcNames": []
  },
  {
    "TypeName": "SmallQueenBee",
    "Namespace": "AFKPETS.NPCs",
    "Name": "民主选举出的蜂后",
    "ShopButton1": "",
    "ShopButton2": "",
    "ChatTexts": [],
    "TownNpcNames": []
  },
  {
    "TypeName": "VoidWatcher",
    "Namespace": "AFKPETS.NPCs",
    "Name": "虚空观察者",
    "ShopButton1": "",
    "ShopButton2": "",
    "ChatTexts": [],
    "TownNpcNames": []
  },
  {
    "TypeName": "MechanicalSlime2",
    "Namespace": "AFKPETS.NPCs",
    "Name": "小型机械史莱姆",
    "ShopButton1": "",
    "ShopButton2": "",
    "ChatTexts": [],
    "TownNpcNames": []
  }
]