[
  {
    "TypeName": "AdventurersPickaxe",
    "Namespace": "AFKPETS.Items",
    "Name": "探险者镐",
    "Tooltip": "它的速度、伤害和挖掘力是随机的。",
    "SetBonus": "",
    "ModifyTooltips": []
  },
  {
    "TypeName": "AmblemofFun",
    "Namespace": "AFKPETS.Items",
    "Name": "趣味纹章",
    "Tooltip": "'甚至连徽章本身都在微笑.'\n'把它放在背包里就能开启趣味模式.'\n'将它从背包中去除就能关闭这个模式.'\n'在趣味模式下BOSS将会获得新的攻击方式'\n'同样,你在趣味模式中击败BOSS将有25%几率获得趣味模式专属宠物.'\n",
    "SetBonus": "",
    "ModifyTooltips": []
  },
  {
    "TypeName": "AncientSand",
    "Namespace": "AFKPETS.Items",
    "Name": "旧沙箱",
    "Tooltip": "'或许它会在你的右手边召唤出什么东西.'",
    "SetBonus": "",
    "ModifyTooltips": []
  },
  {
    "TypeName": "Ankh",
    "Namespace": "AFKPETS.Items",
    "Name": "Ankh",
    "Tooltip": "它有时会保护你免于死亡",
    "SetBonus": "",
    "ModifyTooltips": []
  },
  {
    "TypeName": "AyaChainsaw",
    "Namespace": "AFKPETS.Items",
    "Name": "Aya的链锯",
    "Tooltip": "看上去很可爱但是很危险",
    "SetBonus": "",
    "ModifyTooltips": []
  },
  {
    "TypeName": "BeachCore",
    "Namespace": "AFKPETS.Items",
    "Name": "沙滩核心",
    "Tooltip": "“它曾经是从海洋的精华中形成的”",
    "SetBonus": "",
    "ModifyTooltips": []
  },
  {
    "TypeName": "Bitcoin",
    "Namespace": "AFKPETS.Items",
    "Name": "比特币",
    "Tooltip": "“在泰拉瑞亚里它能使用吗？”",
    "SetBonus": "",
    "ModifyTooltips": []
  },
  {
    "TypeName": "BlackenedHeart",
    "Namespace": "AFKPETS.Items",
    "Name": "被涂黑的心",
    "ToolTip": "'它曾经充满了希望，但现在却只为复仇而跳动.\n在夜晚使用它会依次召唤出被湮没在过去的三样东西.",
    "SetBonus": "",
    "ModifyTooltips": []
  },
  {
    "TypeName": "BlessedRedHat",
    "Namespace": "AFKPETS.Items",
    "Name": "圣红帽",
    "ToolTip": "'它曾是被一位古代军阀制成并赐福.'\n'即便如此仍着红帽.'\n'把它放在背包里可能导致NPC们成为狂热者并回想某位古代军阀.'",
    "SetBonus": "",
    "ModifyTooltips": []
  },
  {
    "TypeName": "BlinkDagger",
    "Namespace": "AFKPETS.Items",
    "Name": "闪现匕首",
    "Tooltip": "“这把具有传奇色彩的匕首曾经是陆地上最快的刺客所使用的。”",
    "SetBonus": "",
    "ModifyTooltips": []
  },
  {
    "TypeName": "Blooddrop",
    "Namespace": "AFKPETS.Items",
    "Name": "血滴",
    "Tooltip": "“这是渡我被身子的血液样本”\n“想着绿谷出久和杀戮让你充满[c/FF1493:快乐]。”",
    "SetBonus": "",
    "ModifyTooltips": []
  },
  {
    "TypeName": "BloodPotion2",
    "Namespace": "AFKPETS.Items",
    "Name": "血糖",
    "Tooltip": "“和人肉一样柔软”",
    "SetBonus": "",
    "ModifyTooltips": []
  },
  {
    "TypeName": "BloodSeekerPickaxe",
    "Namespace": "AFKPETS.Items",
    "Name": "嗜血者镐",
    "Tooltip": "给我喝笨蛋或别人的血液...",
    "SetBonus": "",
    "ModifyTooltips": []
  },
  {
    "TypeName": "BloodyChainsaw",
    "Namespace": "AFKPETS.Items",
    "Name": "血腥链锯",
    "Tooltip": "它寻求血与肉\n击中敌人有几率治疗自己，能够击中友方NPC",
    "SetBonus": "",
    "ModifyTooltips": []
  },
  {
    "TypeName": "BloodyYoshiHead",
    "Namespace": "AFKPETS.Items",
    "Name": "血淋淋的耀西脑袋",
    "Tooltip": "从这上面滴下来的血液还是温的,这说不定会起到作用.",
    "SetBonus": "",
    "ModifyTooltips": []
  },
  {
    "TypeName": "Blueprint",
    "Namespace": "AFKPETS.Items",
    "Name": "蓝图",
    "ToolTip": "'包含了SATLA-001收集的信息.'\n'除了人类的忍耐力之外，它还有其他的信息.'\n",
    "SetBonus": "",
    "ModifyTooltips": []
  },
  {
    "TypeName": "Book",
    "Namespace": "AFKPETS.Items",
    "Name": "附魔之书",
    "Tooltip": "“能用于多种配方合成。”",
    "SetBonus": "",
    "ModifyTooltips": []
  },
  {
    "TypeName": "BrokenProbe",
    "Namespace": "AFKPETS.Items",
    "Name": "损坏的探测器",
    "Tooltip": "“它看起来严重损毁。”\n“或许我能修好它。”",
    "SetBonus": "",
    "ModifyTooltips": []
  },
  {
    "TypeName": "BrokenRealityPieceB",
    "Namespace": "AFKPETS.Items",
    "Name": "真实之残片B",
    "ToolTip": "'你不知道这是从哪里来的，但这让你觉得很奇怪.'",
    "SetBonus": "",
    "ModifyTooltips": []
  },
  {
    "TypeName": "BrokenTime",
    "Namespace": "AFKPETS.Items",
    "Name": "破损钟表",
    "Tooltip": "让你能够快进或倒退时间",
    "SetBonus": "",
    "ModifyTooltips": []
  },
  {
    "TypeName": "CamisCup",
    "Namespace": "AFKPETS.Items",
    "Name": "卡米拉的茶杯",
    "Tooltip": "“灌满了粉丝的眼泪”",
    "SetBonus": "",
    "ModifyTooltips": []
  },
  {
    "TypeName": "Clock",
    "Namespace": "AFKPETS.Items",
    "Name": "被遗忘的钟表",
    "Tooltip": "“它是用来干嘛的？”",
    "SetBonus": "",
    "ModifyTooltips": []
  },
  {
    "TypeName": "CloudCore",
    "Namespace": "AFKPETS.Items",
    "Name": "天空核心",
    "Tooltip": "“它曾经是从天空的精华中形成的”",
    "SetBonus": "",
    "ModifyTooltips": []
  },
  {
    "TypeName": "ConfettiPickaxe",
    "Namespace": "AFKPETS.Items",
    "Name": "五彩纸屑镐",
    "Tooltip": "用五彩纸屑挖掘\n左键挖掘右键庆祝",
    "SetBonus": "",
    "ModifyTooltips": []
  },
  {
    "TypeName": "ContractofFun",
    "Namespace": "AFKPETS.Items",
    "Name": "欢乐之契",
    "ToolTip": "你觉得很奇怪，因为这张纸上有一行小字在对你微笑.\n'看来我需要gitgud，但这场战斗只会让他们明白他们在对抗什么.'\n'我可能很久以前就失去了DAB免疫力，但我能感觉到也许你需要让这世界对你更加友好些.'\n右键以进入友好模式.\n左键将关闭友好模式.\n",
    "SetBonus": "",
    "ModifyTooltips": []
  },
  {
    "TypeName": "Cookie",
    "Namespace": "AFKPETS.Items",
    "Name": "饼干",
    "Tooltip": "",
    "SetBonus": "",
    "ModifyTooltips": []
  },
  {
    "TypeName": "CookieBag",
    "Namespace": "AFKPETS.Items",
    "Name": "饼干袋",
    "Tooltip": "“那么多饼干。”\n“这些饼干是快乐的日子不可缺少的。”",
    "SetBonus": "",
    "ModifyTooltips": []
  },
  {
    "TypeName": "CookieBox",
    "Namespace": "AFKPETS.Items",
    "Name": "饼干盒",
    "Tooltip": "右键打开\n“我在想里面有什么？”",
    "SetBonus": "",
    "ModifyTooltips": []
  },
  {
    "TypeName": "CorruptionCore",
    "Namespace": "AFKPETS.Items",
    "Name": "腐蚀核心",
    "Tooltip": "“它曾经是从腐化的精华中形成的”",
    "SetBonus": "",
    "ModifyTooltips": []
  },
  {
    "TypeName": "CrimsonCore",
    "Namespace": "AFKPETS.Items",
    "Name": "猩红核心",
    "Tooltip": "“它曾经是从血腥的精华中形成的”",
    "SetBonus": "",
    "ModifyTooltips": []
  },
  {
    "TypeName": "CuteLittleSlime",
    "Namespace": "AFKPETS.Items",
    "Name": "可爱的小史莱姆",
    "Tooltip": "“我会帮助你的，人类。”\n“像无尽凝胶弹一样使用”",
    "SetBonus": "",
    "ModifyTooltips": []
  },
  {
    "TypeName": "CuteLittleStar",
    "Namespace": "AFKPETS.Items",
    "Name": "可爱的小星星",
    "Tooltip": "“哇偶，如此闪亮！”\n“像无尽星星子弹一样使用”",
    "SetBonus": "",
    "ModifyTooltips": []
  },
  {
    "TypeName": "DarkFragment",
    "Namespace": "AFKPETS.Items",
    "Name": "黑暗碎片",
    "Tooltip": "“...的部分”",
    "SetBonus": "",
    "ModifyTooltips": []
  },
  {
    "TypeName": "DarkMirror",
    "Namespace": "AFKPETS.Items",
    "Name": "黑暗镜子",
    "Tooltip": "“这镜子用1080p显示了在不同地方的你。”",
    "SetBonus": "",
    "ModifyTooltips": []
  },
  {
    "TypeName": "DarkSlimeWatcher",
    "Namespace": "AFKPETS.Items",
    "Name": "混沌之视",
    "ToolTip": "'它观察着你的一举一动'",
    "SetBonus": "",
    "ModifyTooltips": []
  },
  {
    "TypeName": "DarkWatch",
    "Namespace": "AFKPETS.Items",
    "Name": "黑夜表",
    "Tooltip": "“明月升起，冷清静谧”",
    "SetBonus": "",
    "ModifyTooltips": []
  },
  {
    "TypeName": "DataMiner",
    "Namespace": "AFKPETS.Items",
    "Name": "数据矿工",
    "Tooltip": "击中敌人会将它们解码。\n有几率从这个世界挖到比特币。\n它的伤害在100到400之间浮动\n它让你感到奇怪。",
    "SetBonus": "",
    "ModifyTooltips": []
  },
  {
    "TypeName": "DeadCat",
    "Namespace": "AFKPETS.Items",
    "Name": "死猫",
    "Tooltip": "'它仍然具有辐射'",
    "SetBonus": "",
    "ModifyTooltips": []
  },
  {
    "TypeName": "DeathCoin",
    "Namespace": "AFKPETS.Items",
    "Name": "死亡硬币",
    "Tooltip": "让你秒掉任意一个BOSS以外的敌人\n此外，这玩意也可以用来换些道具",
    "SetBonus": "",
    "ModifyTooltips": []
  },
  {
    "TypeName": "DesertMirror",
    "Namespace": "AFKPETS.Items",
    "Name": "阿基米德之镜",
    "ToolTip": "'它能够集中太阳光并从中发出强烈的光.\n如果你聚集到了足够多的光线,它可能会分散掉某物.",
    "SetBonus": "",
    "ModifyTooltips": []
  },
  {
    "TypeName": "DeterminedFishingRod",
    "Namespace": "AFKPETS.Items",
    "Name": "决心钓竿",
    "Tooltip": "钓上鱼让你充满决心",
    "SetBonus": "",
    "ModifyTooltips": []
  },
  {
    "TypeName": "DeterminedPickaxe",
    "Namespace": "AFKPETS.Items",
    "Name": "决心镐",
    "Tooltip": "破坏物块让你充满决心",
    "SetBonus": "",
    "ModifyTooltips": []
  },
  {
    "TypeName": "DoctorsRemoteControl",
    "Namespace": "AFKPETS.Items",
    "Name": "医生遥控器",
    "ToolTip": "'胎儿医生曾经用它来阻止血肉男孩.'\n'使用后，它将使所有召唤物无效化.'",
    "SetBonus": "",
    "ModifyTooltips": []
  },
  {
    "TypeName": "DrillerArrow",
    "Namespace": "AFKPETS.Items",
    "Name": "钻头箭",
    "ToolTip": "'它将击溃敌人的防御并能穿透5次'\n'击中敌人后有几率造成螺母形穿孔.'",
    "SetBonus": "",
    "ModifyTooltips": []
  },
  {
    "TypeName": "DungeonCore",
    "Namespace": "AFKPETS.Items",
    "Name": "地牢核心",
    "Tooltip": "“它曾经是从地牢的精华中形成的”",
    "SetBonus": "",
    "ModifyTooltips": []
  },
  {
    "TypeName": "Emblem",
    "Namespace": "AFKPETS.Items",
    "Name": "被遗忘的纹章",
    "Tooltip": "“看起来我能好好利用它。”",
    "SetBonus": "",
    "ModifyTooltips": []
  },
  {
    "TypeName": "EyeofNullifier",
    "Namespace": "AFKPETS.Items",
    "Name": "“虚无者之眼”",
    "Tooltip": "用来使万物归零\n“它属于古老军阀AFK”\n“使用它将会清除所有飞射物”",
    "SetBonus": "",
    "ModifyTooltips": []
  },
  {
    "TypeName": "FabricofSpace",
    "Namespace": "AFKPETS.Items",
    "Name": "大空之构",
    "ToolTip": "它看起来像是这个宇宙中真实的形象之一.\n只是拿着它也会让你感觉自己的身体同时存在于三千世界当中.\n'左键允许你传送到鼠标的位置'\n'右键+上方向传送你回家.'\n'右键+下方向传送到随机位置.'\n'右键+左方向传送你到死亡地点.'\n'右键+右方向可以闪现'",
    "SetBonus": "",
    "ModifyTooltips": []
  },
  {
    "TypeName": "FearVial",
    "Namespace": "AFKPETS.Items",
    "Name": "恐惧小瓶",
    "Tooltip": "'它包含了Akumu的真实本质'\n'也许他们的恐惧让你感觉到[c/FF1493:愉悦]'\n",
    "SetBonus": "",
    "ModifyTooltips": []
  },
  {
    "TypeName": "FloppyDisk",
    "Namespace": "AFKPETS.Items",
    "Name": "软盘",
    "ToolTip": "'里面存着些经典的太空电影'\n'把它放在背包里时你将无惧重力且触及地面时会反弹'",
    "SetBonus": "",
    "ModifyTooltips": []
  },
  {
    "TypeName": "ForgottenThing",
    "Namespace": "AFKPETS.Items",
    "Name": "破灭的???",
    "Tooltip": "'这就是财富，但回报是什么?'\n'向导看起来是无罪之人???'\n'祭祀也可以通过巫毒玩偶和使用这个物品来完成'\n'或许能带来[c/FF1493:快乐]...'",
    "SetBonus": "",
    "ModifyTooltips": []
  },
  {
    "TypeName": "FourthGlitchFishingRod",
    "Namespace": "AFKPETS.Items",
    "Name": "四维钓鱼竿",
    "ToolTip": "它属于老者的Consequences\n能在岩浆中垂钓\n[c/ffff00:趣味模式专属]",
    "SetBonus": "",
    "ModifyTooltips": []
  },
  {
    "TypeName": "FrozenCoin",
    "Namespace": "AFKPETS.Items",
    "Name": "冻住的和同开珎",
    "Tooltip": "“它看起来古老并被遗忘”",
    "SetBonus": "",
    "ModifyTooltips": []
  },
  {
    "TypeName": "FrozenSkull",
    "Namespace": "AFKPETS.Items",
    "Name": "冰冻头颅",
    "Tooltip": "'或许它会在你的右手边召唤出什么东西'",
    "SetBonus": "",
    "ModifyTooltips": []
  },
  {
    "TypeName": "FrozenWatch",
    "Namespace": "AFKPETS.Items",
    "Name": "冰冻表",
    "Tooltip": "“小心暴雪。”",
    "SetBonus": "",
    "ModifyTooltips": []
  },
  {
    "TypeName": "FruitPotion",
    "Namespace": "AFKPETS.Items",
    "Name": "生命果实药剂",
    "Tooltip": "“增加20生命与生命回复”",
    "SetBonus": "",
    "ModifyTooltips": []
  },
  {
    "TypeName": "Fury",
    "Namespace": "AFKPETS.Items",
    "Name": "狂怒",
    "Tooltip": "它曾经是由古代军阀Fury锻造而成，用来塑造他的宇宙.\n根据骷髅象形文字的描述，它是在宇宙黑暗中锻造的.\n'左键以将它作为一把十字镐来使用,并且激活它的特殊能力.'\n'RC+上用古老的火焰照亮你的灵魂4秒钟.'\n'右键+下可以停止时间5秒.'\n'右键+左可以在8秒内使用狂怒锻造.'\n'RC+右可以进行超自然攻击.'\n'特殊攻击有冷却时间.'",
    "SetBonus": "",
    "ModifyTooltips": []
  },
  {
    "TypeName": "GiftBag",
    "Namespace": "AFKPETS.Items",
    "Name": "礼物袋",
    "Tooltip": "右键打开\n“看起来某人想要帮我。”",
    "SetBonus": "",
    "ModifyTooltips": []
  },
  {
    "TypeName": "GiftBag2",
    "Namespace": "AFKPETS.Items",
    "Name": "微笑的礼物袋",
    "Tooltip": "右键打开\n“这个袋子看起来不稳定但是看上去还是很稀有”",
    "SetBonus": "",
    "ModifyTooltips": []
  },
  {
    "TypeName": "GlobeofAgony",
    "Namespace": "AFKPETS.Items",
    "Name": "愤怒之球",
    "Tooltip": "“小型地牢在这个有钥匙孔的球里。”\n“让你能听到异世界对愤怒与痛苦的呐喊”\n“可能一个小钥匙会带来异教徒的诅咒文明”",
    "SetBonus": "",
    "ModifyTooltips": []
  },
  {
    "TypeName": "GoldDedector",
    "Namespace": "AFKPETS.Items",
    "Name": "黄金探测器",
    "Tooltip": "对寻找宝藏很有用",
    "SetBonus": "",
    "ModifyTooltips": []
  },
  {
    "TypeName": "GoldenKingSlimeIdol",
    "Namespace": "AFKPETS.Items",
    "Name": "黄金史莱姆王雕像",
    "ToolTip": "'背面有一张小纸条\n善良的国王和勇敢的英雄永远活在我们的心中\n使用它将会召唤史莱姆总统\n只能在击败史莱姆王和史莱姆救世主后使用",
    "SetBonus": "",
    "ModifyTooltips": []
  },
  {
    "TypeName": "GoldenSkull",
    "Namespace": "AFKPETS.Items",
    "Name": "黄金头颅",
    "Tooltip": "'我希望它察觉不到这是个赝品'\n'只能在晚上使用.'",
    "SetBonus": "",
    "ModifyTooltips": []
  },
  {
    "TypeName": "GraniteCore",
    "Namespace": "AFKPETS.Items",
    "Name": "沙漠核心",
    "Tooltip": "“它曾经是从沙漠的精华中形成的”",
    "SetBonus": "",
    "ModifyTooltips": []
  },
  {
    "TypeName": "GreenCore",
    "Namespace": "AFKPETS.Items",
    "Name": "庆典核心",
    "ToolTip": "'奇怪的是，它让你觉得BOSS看起来像皮纳塔'\n[c/ffff00:趣味模式专属]",
    "SetBonus": "",
    "ModifyTooltips": []
  },
  {
    "TypeName": "GreenNote",
    "Namespace": "AFKPETS.Items",
    "Name": "绿色音符",
    "ToolTip": "生命值和魔法值增加了",
    "SetBonus": "",
    "ModifyTooltips": []
  },
  {
    "TypeName": "GuideSoulContainer",
    "Namespace": "AFKPETS.Items",
    "Name": "向导灵魂容器",
    "ToolTip": "'也许这可以保护他的灵魂免受黑暗魔法的伤害'\n'当它在背包里的时候，将向导巫毒玩偶丢进岩浆将不会召唤出血肉之墙'\n",
    "SetBonus": "",
    "ModifyTooltips": []
  },
  {
    "TypeName": "HeartofJoy",
    "Namespace": "AFKPETS.Items",
    "Name": "愉悦之心",
    "Tooltip": "你感到十分愉悦",
    "SetBonus": "",
    "ModifyTooltips": []
  },
  {
    "TypeName": "HeartofKindness",
    "Namespace": "AFKPETS.Items",
    "Name": "祝福之心",
    "ToolTip": "'它是被古代军阀Blossom制造出来的.'\n'它仍然关心军阀的国家，并希望保护他们.'\n'当使用Blossom将祝福你的灵魂4秒，它有1分钟的冷却时间.'\n'祝福会反射投射物并稍微增加你的生命回复.'\n[c/ffff00:趣味模式专属]",
    "SetBonus": "",
    "ModifyTooltips": []
  },
  {
    "TypeName": "HellstoneCore",
    "Namespace": "AFKPETS.Items",
    "Name": "地狱核心",
    "Tooltip": "“它曾经是从地狱的精华中形成的”",
    "SetBonus": "",
    "ModifyTooltips": []
  },
  {
    "TypeName": "HolographicBag",
    "Namespace": "AFKPETS.Items",
    "Name": "全息袋",
    "Tooltip": "右键打开\n“它充满了全息块，但奇怪的是它看上去是空的”",
    "SetBonus": "",
    "ModifyTooltips": []
  },
  {
    "TypeName": "HolographicEye",
    "Namespace": "AFKPETS.Items",
    "Name": "全息眼",
    "ToolTip": "“睁开眼看”\n“它在你的背包里时你能看见光学全息物块与家具”\n[c/ffff00:趣味模式专属]",
    "SetBonus": "",
    "ModifyTooltips": []
  },
  {
    "TypeName": "HolographicFishingRod",
    "Namespace": "AFKPETS.Items",
    "Name": "全息钓竿",
    "Tooltip": "它看上去真假虚实无法分清\n有10%几率放出5条线\n在沙滩上有几率钓上全息袋",
    "SetBonus": "",
    "ModifyTooltips": []
  },
  {
    "TypeName": "HolographicPickaxe",
    "Namespace": "AFKPETS.Items",
    "Name": "全息镐",
    "Tooltip": "这是真的吗？\n击中敌人有几率使他们解码。",
    "SetBonus": "",
    "ModifyTooltips": []
  },
  {
    "TypeName": "HornoPlenty",
    "Namespace": "AFKPETS.Items",
    "Name": "丰饶角",
    "ToolTip": "“它充满了取之不尽的庆祝水果。”",
    "SetBonus": "",
    "ModifyTooltips": []
  },
  {
    "TypeName": "IceBullet",
    "Namespace": "AFKPETS.Items",
    "Name": "过冻水晶子弹",
    "Tooltip": "“它看上去很神奇，但是还是冰冷”",
    "SetBonus": "",
    "ModifyTooltips": []
  },
  {
    "TypeName": "Inventory",
    "Namespace": "AFKPETS.Items",
    "Name": "背包袋",
    "ToolTip": "右键打开\n'It was once belong to the fallen hero'",
    "SetBonus": "",
    "ModifyTooltips": []
  },
  {
    "TypeName": "JeraRune",
    "Namespace": "AFKPETS.Items",
    "Name": "Jera符文",
    "ToolTip": "你觉得你不是一个人\n'当你以左键使用它并把它放在背包里之后\n所有普通宠物都会跟着你. 你可以用右键来禁用它.'\n[c/ffff00:趣味模式专属]",
    "SetBonus": "",
    "ModifyTooltips": []
  },
  {
    "TypeName": "JesterEye",
    "Namespace": "AFKPETS.Items",
    "Name": "水晶之牢",
    "Tooltip": "'上面有一个钥匙孔.'\n'在无星之夜,与商人交谈时或许他能给你提供些帮助'\n'另外Carie无意间透露出蛋糕在早上被一只浮在空中的嘴吃掉了.'",
    "SetBonus": "",
    "ModifyTooltips": []
  },
  {
    "TypeName": "JesterEyeKey",
    "Namespace": "AFKPETS.Items",
    "Name": "门钥匙",
    "Tooltip": "“它看起来被修过”\n'它让你感到天旋地转.'",
    "SetBonus": "",
    "ModifyTooltips": []
  },
  {
    "TypeName": "Joy",
    "Namespace": "AFKPETS.Items",
    "Name": "欢乐",
    "Tooltip": "这种药让你感觉不到任何东西。在紧急情况下使用.",
    "SetBonus": "",
    "ModifyTooltips": []
  },
  {
    "TypeName": "JungleCore",
    "Namespace": "AFKPETS.Items",
    "Name": "丛林核心",
    "Tooltip": "“它曾经是从丛林的精华中形成的”",
    "SetBonus": "",
    "ModifyTooltips": []
  },
  {
    "TypeName": "Junk",
    "Namespace": "AFKPETS.Items",
    "Name": "垃圾",
    "Tooltip": "只是一些垃圾。",
    "SetBonus": "",
    "ModifyTooltips": []
  },
  {
    "TypeName": "KeyPiece1",
    "Namespace": "AFKPETS.Items",
    "Name": "破损的钥匙A",
    "Tooltip": "“它看上去坏了，但是很独特”\n“如果有剩下的几块，它应该能被修好”",
    "SetBonus": "",
    "ModifyTooltips": []
  },
  {
    "TypeName": "KeyPiece2",
    "Namespace": "AFKPETS.Items",
    "Name": "破损的钥匙B",
    "Tooltip": "“它看上去坏了，但是很独特”\n“如果有剩下的几块，它应该能被修好”",
    "SetBonus": "",
    "ModifyTooltips": []
  },
  {
    "TypeName": "KeyPiece3",
    "Namespace": "AFKPETS.Items",
    "Name": "破损的钥匙C",
    "Tooltip": "“它看上去坏了，但是很独特”\n“如果有剩下的几块，它应该能被修好”",
    "SetBonus": "",
    "ModifyTooltips": []
  },
  {
    "TypeName": "LightWatch",
    "Namespace": "AFKPETS.Items",
    "Name": "光明表",
    "Tooltip": "“黎明升起，与梦同行”",
    "SetBonus": "",
    "ModifyTooltips": []
  },
  {
    "TypeName": "LittleSpider",
    "Namespace": "AFKPETS.Items",
    "Name": "小蜘蛛",
    "Tooltip": "“他想要帮助你。”",
    "SetBonus": "",
    "ModifyTooltips": []
  },
  {
    "TypeName": "LizhardPotion",
    "Namespace": "AFKPETS.Items",
    "Name": "蜥蜴皮肤药剂",
    "Tooltip": "“增加防御与耐力”",
    "SetBonus": "",
    "ModifyTooltips": []
  },
  {
    "TypeName": "LoveLetter",
    "Namespace": "AFKPETS.Items",
    "Name": "绫乃的情书",
    "Tooltip": "“这是写给她最喜爱的先辈的。”\n“尽管她感觉不到任何东西，消灭目标让空气充满了[c/FF1493:快乐]”",
    "SetBonus": "",
    "ModifyTooltips": []
  },
  {
    "TypeName": "LunarCore",
    "Namespace": "AFKPETS.Items",
    "Name": "分子云核心",
    "Tooltip": "'它是由星际粒子形成的.'",
    "SetBonus": "",
    "ModifyTooltips": []
  },
  {
    "TypeName": "MagicWand",
    "Namespace": "AFKPETS.Items",
    "Name": "魔法师的杖",
    "Tooltip": "'也许有人想用这个'",
    "SetBonus": "",
    "ModifyTooltips": []
  },
  {
    "TypeName": "MarbleCore",
    "Namespace": "AFKPETS.Items",
    "Name": "陨铁核心",
    "Tooltip": "“它曾经是从陨石的精华中形成的”",
    "SetBonus": "",
    "ModifyTooltips": []
  },
  {
    "TypeName": "MaskofJoy",
    "Namespace": "AFKPETS.Items",
    "Name": "欢乐之面",
    "Tooltip": "'这甚至带来了伙伴的[c/FF1493:欢乐]'\n",
    "SetBonus": "",
    "ModifyTooltips": []
  },
  {
    "TypeName": "MechanicalFishingRod",
    "Namespace": "AFKPETS.Items",
    "Name": "机械鱼竿",
    "Tooltip": "它甚至认为自己也是个机械BOSS\n'一次能抛出三个钩子'",
    "SetBonus": "",
    "ModifyTooltips": []
  },
  {
    "TypeName": "MedicineKit",
    "Namespace": "AFKPETS.Items",
    "Name": "医疗包",
    "Tooltip": "那就是为什么护士能那么快让你痊愈\n急救时你能治疗自己2生命值",
    "SetBonus": "",
    "ModifyTooltips": []
  },
  {
    "TypeName": "MisaoHeart",
    "Namespace": "AFKPETS.Items",
    "Name": "???之心",
    "ToolTip": "它会给你一些BUFF和生命",
    "SetBonus": "",
    "ModifyTooltips": []
  },
  {
    "TypeName": "MolecularStabilizer",
    "Namespace": "AFKPETS.Items",
    "Name": "分子稳定器",
    "Tooltip": "“用来稳定机械核心。”",
    "SetBonus": "",
    "ModifyTooltips": []
  },
  {
    "TypeName": "MushroomCore",
    "Namespace": "AFKPETS.Items",
    "Name": "蘑菇核心",
    "Tooltip": "“它曾经是从蘑菇的精华中形成的”",
    "SetBonus": "",
    "ModifyTooltips": []
  },
  {
    "TypeName": "MysteriousBook",
    "Namespace": "AFKPETS.Items",
    "Name": "神秘之书",
    "Tooltip": "'它是Alfred Drewis的著作\n'通过学习解剖学,Aya获得了许多[c/FF1493:乐趣],她甚至自己也写了几页上去.'",
    "SetBonus": "",
    "ModifyTooltips": []
  },
  {
    "TypeName": "NatsukiCupcake",
    "Namespace": "AFKPETS.Items",
    "Name": "可爱的纸杯蛋糕",
    "ToolTip": "'它是由夏树用她的特殊配方烘焙而成的.'\n'它看起来实在是太可爱了,实在让人不忍下口.'\n'当它在你的背包里的时候，你的最大生命和再生力会缓慢地增加，你会感觉更傲娇.'",
    "SetBonus": "",
    "ModifyTooltips": []
  },
  {
    "TypeName": "NightmareinaBottle",
    "Namespace": "AFKPETS.Items",
    "Name": "“瓶中噩梦”",
    "Tooltip": "看起来有某物被困在里面了.\n'打碎这个玻璃瓶可能会让它感到[c/FF0000:开心].'\n'把瓶子扔到地上打碎.'\n'打破瓶子将会使得噩梦被释放出来.'\n",
    "SetBonus": "",
    "ModifyTooltips": []
  },
  {
    "TypeName": "OrbofConfusion",
    "Namespace": "AFKPETS.Items",
    "Name": "混乱之球",
    "ToolTip": "'上面有一个开关'\n'使用后将会致使垂钓者陷入混乱.'\n'使用后将会重新随机钓鱼任务'\n",
    "SetBonus": "",
    "ModifyTooltips": []
  },
  {
    "TypeName": "PearlstoneCore",
    "Namespace": "AFKPETS.Items",
    "Name": "神圣核心",
    "Tooltip": "“它曾经是从圣地的精华中形成的”",
    "SetBonus": "",
    "ModifyTooltips": []
  },
  {
    "TypeName": "PhoneCase",
    "Namespace": "AFKPETS.Items",
    "Name": "手机壳",
    "Tooltip": "“你感到强烈的精神力量从中溢出。”",
    "SetBonus": "",
    "ModifyTooltips": []
  },
  {
    "TypeName": "PinkDiamond",
    "Namespace": "AFKPETS.Items",
    "Name": "粉色钻石",
    "Tooltip": "我希望它能引起人们的注意.'",
    "SetBonus": "",
    "ModifyTooltips": []
  },
  {
    "TypeName": "PinkNote",
    "Namespace": "AFKPETS.Items",
    "Name": "粉色音符",
    "ToolTip": "你的欢乐加强了",
    "SetBonus": "",
    "ModifyTooltips": []
  },
  {
    "TypeName": "PlantAshContainer",
    "Namespace": "AFKPETS.Items",
    "Name": "灰烬容器",
    "Tooltip": "'这会让人生气的.'",
    "SetBonus": "",
    "ModifyTooltips": []
  },
  {
    "TypeName": "PocketWatchofBlood",
    "Namespace": "AFKPETS.Items",
    "Name": "沾血怀表",
    "ToolTip": "'使用它将停止时间6秒'",
    "SetBonus": "",
    "ModifyTooltips": []
  },
  {
    "TypeName": "PoliticianSlimeTreasureBag",
    "Namespace": "AFKPETS.Items",
    "Name": "宝藏袋",
    "ToolTip": "右键打开\n'总统的下台将使他们充满复仇之心'",
    "SetBonus": "",
    "ModifyTooltips": []
  },
  {
    "TypeName": "PortableSavePoint",
    "Namespace": "AFKPETS.Items",
    "Name": "便携式存档点",
    "ToolTip": "'保护你所在意的所有人会让你拥有足够的[c/FF0000:决 心]来做成[c/ffff00:存档点]'\n'左键可以创造一个[c/ffff00:存档点]而你可以在世界中没有任何BOSS存在的情况下随时用右键返回[c/ffff00:存档点].'",
    "SetBonus": "",
    "ModifyTooltips": []
  },
  {
    "TypeName": "PotraitofMarkov",
    "Namespace": "AFKPETS.Items",
    "Name": "马尔科夫的自画像",
    "Tooltip": "'从外面看起来很正常,但从里面嘛...'\n'当血月之时，[c/FF1493:快乐之人]需要被牺牲???.'\n",
    "SetBonus": "",
    "ModifyTooltips": []
  },
  {
    "TypeName": "PreyTrackingChip",
    "Namespace": "AFKPETS.Items",
    "Name": "猎物追踪芯片",
    "ToolTip": "'具有内存存储、无线传输和应急单元.\n夜间启动应急单元可能会向某人发送信号",
    "SetBonus": "",
    "ModifyTooltips": []
  },
  {
    "TypeName": "PumpkinWatch",
    "Namespace": "AFKPETS.Items",
    "Name": "丰收表",
    "ToolTip": "'你能感觉到南瓜中的火焰将会永远的燃烧下去.'\n'小心南瓜.'",
    "SetBonus": "",
    "ModifyTooltips": []
  },
  {
    "TypeName": "PurpleHermit",
    "Namespace": "AFKPETS.Items",
    "Name": "隐者之紫",
    "ToolTip": "你觉得波纹气功能赋予其力量.",
    "SetBonus": "",
    "ModifyTooltips": []
  },
  {
    "TypeName": "RainbowVial",
    "Namespace": "AFKPETS.Items",
    "Name": "浓缩小瓶彩虹",
    "ToolTip": "'它的神奇光芒可能会影响其他NPC'\n",
    "SetBonus": "",
    "ModifyTooltips": []
  },
  {
    "TypeName": "RalseiDummy",
    "Namespace": "AFKPETS.Items",
    "Name": "训练假人",
    "ToolTip": "'用于训练*拥抱和谈话*的最好对象'\n'使用它将产生一个训练假人，该假人将成为召唤物的目标并激活DPS测量仪'\n'右键或任何已存在在你世界上的BOSS都会使它失效.'\n",
    "SetBonus": "",
    "ModifyTooltips": []
  },
  {
    "TypeName": "RedWatch",
    "Namespace": "AFKPETS.Items",
    "Name": "血表",
    "ToolTip": "'你觉得一切都在重新变红'\n“对月亮生效”",
    "SetBonus": "",
    "ModifyTooltips": []
  },
  {
    "TypeName": "ReneofBerkana",
    "Namespace": "AFKPETS.Items",
    "Name": "Berkana符文",
    "Tooltip": "'你感到内心的某种东西变得更强.'\n'把它放进你的背包里可以增加你25%的恢复速度.'\n'它的效果将覆盖其他加速生命恢复的物品.'",
    "SetBonus": "",
    "ModifyTooltips": []
  },
  {
    "TypeName": "RuneofHakurei",
    "Namespace": "AFKPETS.Items",
    "Name": "博丽符文",
    "ToolTip": "'它纯净而又强大的力量足以构筑起博丽大结界'\n'把它放在你的背包里以净化你的魔法和灵魂'\n'它将会驱除天外之灾和四柱'",
    "SetBonus": "",
    "ModifyTooltips": []
  },
  {
    "TypeName": "RuneofKaunaz",
    "Namespace": "AFKPETS.Items",
    "Name": "Kaunaz符文",
    "Tooltip": "'愿你的灵魂在古老火焰的狂暴中获取力量.'\n'把它放在你的背包中中，将会点燃你的武器，并给你愤怒的buff.'",
    "SetBonus": "",
    "ModifyTooltips": []
  },
  {
    "TypeName": "RuneofLaguz",
    "Namespace": "AFKPETS.Items",
    "Name": "Laguz符文",
    "Tooltip": "'它可能会影响云'",
    "SetBonus": "",
    "ModifyTooltips": []
  },
  {
    "TypeName": "RuneofSowulo",
    "Namespace": "AFKPETS.Items",
    "Name": "Sowulo符文",
    "ToolTip": "'它所包含的力量可能引起某人的注意.'",
    "SetBonus": "",
    "ModifyTooltips": []
  },
  {
    "TypeName": "RuneofWunjo",
    "Namespace": "AFKPETS.Items",
    "Name": "Wunjo符文",
    "Tooltip": "“由我妻由乃的[c/FF1493:快乐]浓缩而成。”\n“它还在一遍一遍轻语雪辉的名字。”",
    "SetBonus": "",
    "ModifyTooltips": []
  },
  {
    "TypeName": "RustedKey",
    "Namespace": "AFKPETS.Items",
    "Name": "生锈钥匙",
    "Tooltip": "“即使它的持有者也忘了它的存在与重要性”",
    "SetBonus": "",
    "ModifyTooltips": []
  },
  {
    "TypeName": "SadBoulder",
    "Namespace": "AFKPETS.Items",
    "Name": "伤心巨石",
    "Tooltip": "“你没法看到它的脸。你是怎么知道的？”\n“巨石问为什么Happy杀死了所有它遇到的巨石。”",
    "SetBonus": "",
    "ModifyTooltips": []
  },
  {
    "TypeName": "Sale",
    "Namespace": "AFKPETS.Items",
    "Name": "折扣券",
    "Tooltip": "可以用来再次打造大帝武器",
    "SetBonus": "",
    "ModifyTooltips": []
  },
  {
    "TypeName": "SATLA001TreasureBag",
    "Namespace": "AFKPETS.Items",
    "Name": "SATLA-001宝藏袋",
    "ToolTip": "右键打开\n“有点重”",
    "SetBonus": "",
    "ModifyTooltips": []
  },
  {
    "TypeName": "ScrapMetal",
    "Namespace": "AFKPETS.Items",
    "Name": "金属废料",
    "ToolTip": "'它来自SATLA-001的装甲和电路的残骸'\n'它可用于制作物品或在提炼机中使用'\n'从提炼机中获得的金属将通过你击杀BOSS的进度而得到改善'\n",
    "SetBonus": "",
    "ModifyTooltips": []
  },
  {
    "TypeName": "ShatteredSoul",
    "Namespace": "AFKPETS.Items",
    "Name": "破碎的灵魂",
    "ToolTip": "'它是由牺牲者的善良和纯真形成的.'\n'使用后将给你10分钟的再生、生命力和拾心.'\n'当你快要死的时候，这份纯真可以保护你不受恐惧的伤害.'",
    "SetBonus": "",
    "ModifyTooltips": []
  },
  {
    "TypeName": "SkullCrystal",
    "Namespace": "AFKPETS.Items",
    "Name": "头骨结晶",
    "Tooltip": "“它将你的终焉之地归还与你。”",
    "SetBonus": "",
    "ModifyTooltips": []
  },
  {
    "TypeName": "SlimeinaGlassCube",
    "Namespace": "AFKPETS.Items",
    "Name": "缸中史莱姆",
    "ToolTip": "'它看起来很害怕，它想要自由.\n在白天使用它将会召唤出史莱姆救世主",
    "SetBonus": "",
    "ModifyTooltips": []
  },
  {
    "TypeName": "SlimesLastHopeTreasureBag",
    "Namespace": "AFKPETS.Items",
    "Name": "宝藏袋",
    "ToolTip": "右键打开\n'他们将会对他们的朋友复仇'",
    "SetBonus": "",
    "ModifyTooltips": []
  },
  {
    "TypeName": "SmokePellet",
    "Namespace": "AFKPETS.Items",
    "Name": "烟雾弹",
    "ToolTip": "'一种能放出浓浓烟雾的忍者武具.'\n'当使用时，它会产生一种能反射飞射物的烟雾，冷却时间为1分钟.'",
    "SetBonus": "",
    "ModifyTooltips": []
  },
  {
    "TypeName": "SnowCore",
    "Namespace": "AFKPETS.Items",
    "Name": "冰雪核心",
    "Tooltip": "“它曾经是从冰雪的精华中形成的”",
    "SetBonus": "",
    "ModifyTooltips": []
  },
  {
    "TypeName": "SolarWatch",
    "Namespace": "AFKPETS.Items",
    "Name": "太阳表",
    "ToolTip": "'如果灵魂相连的灯光指向你的心'\n'你现在还能看到比黑暗更强烈的共鸣吗?'\n“小心日蚀。”",
    "SetBonus": "",
    "ModifyTooltips": []
  },
  {
    "TypeName": "SoulHeart",
    "Namespace": "AFKPETS.Items",
    "Name": "灵魂心",
    "Tooltip": "它是灵魂的一部分",
    "SetBonus": "",
    "ModifyTooltips": []
  },
  {
    "TypeName": "SporePotion",
    "Namespace": "AFKPETS.Items",
    "Name": "孢子药剂",
    "Tooltip": "“让你感觉像棵树”",
    "SetBonus": "",
    "ModifyTooltips": []
  },
  {
    "TypeName": "StarPotion",
    "Namespace": "AFKPETS.Items",
    "Name": "落星药剂",
    "Tooltip": "“受到伤害时产生落星”",
    "SetBonus": "",
    "ModifyTooltips": []
  },
  {
    "TypeName": "StoneofSol",
    "Namespace": "AFKPETS.Items",
    "Name": "一片溶胶",
    "ToolTip": "'它曾经是由大魔法师用太阳的火焰制成的.'\n'您可以使用它来掀起或消散沙尘暴.'\n'当它被装备的时候，你就不会受到火和强风的影响.'\n'当你受到伤害时，你有几率触发火焰，当你的生命减少50%时，地狱效应激活.'",
    "SetBonus": "",
    "ModifyTooltips": []
  },
  {
    "TypeName": "StorytellersBook",
    "Namespace": "AFKPETS.Items",
    "Name": "说书人之册",
    "ToolTip": "'充满了幸福的结局和英雄的故事.'\n'它让你觉得每个好人都会有好朋友.'\n'当它在你的背包中时，你可以召唤多只宠物.'",
    "SetBonus": "",
    "ModifyTooltips": []
  },
  {
    "TypeName": "SuperStar1",
    "Namespace": "AFKPETS.Items",
    "Name": "超级星",
    "ToolTip": "“它在望向你”\n“使用后免疫接触伤害和抛射物伤害5秒”\n[c/ffff00:趣味模式专属]",
    "SetBonus": "",
    "ModifyTooltips": []
  },
  {
    "TypeName": "SuspiciousBox",
    "Namespace": "AFKPETS.Items",
    "Name": "薛定谔的盒子",
    "Tooltip": "“那只猫从1935年开始就在这个盒子里了”\n“它可能活着也可能死了，但你不会知道。”\n“右键打开。”\n“Fredbear应该会引导你走向宇宙的尽头。”",
    "SetBonus": "",
    "ModifyTooltips": []
  },
  {
    "TypeName": "SwissChocolate",
    "Namespace": "AFKPETS.Items",
    "Name": "瑞士巧克力",
    "ToolTip": "“它的味道和大屠杀一样好”",
    "SetBonus": "",
    "ModifyTooltips": []
  },
  {
    "TypeName": "TempleBox",
    "Namespace": "AFKPETS.Items",
    "Name": "神庙盒子",
    "Tooltip": "需要神庙钥匙才能打开\n右键打开\n“这个盒子是从哪里来的？”",
    "SetBonus": "",
    "ModifyTooltips": []
  },
  {
    "TypeName": "TerraWatch",
    "Namespace": "AFKPETS.Items",
    "Name": "泰拉表",
    "Tooltip": "左键切换日夜\n右键制造血月或日食\n右键+下键激活或停止南瓜月\n右键+上键激活或停止霜月\n",
    "SetBonus": "",
    "ModifyTooltips": []
  },
  {
    "TypeName": "TomeofMoon",
    "Namespace": "AFKPETS.Items",
    "Name": "月之书",
    "ToolTip": "'它曾经是由月之宁静和神秘做成的'\n'使用它会改变你的月亮类型为自定义.\n''观察到所需的月亮类型文本后，玩家需要再次进入主菜单并重新加载mods以调整设置.'\n'当游戏关闭时，月亮类型被重新设置为原版月亮.'",
    "SetBonus": "",
    "ModifyTooltips": []
  },
  {
    "TypeName": "TomeofSun",
    "Namespace": "AFKPETS.Items",
    "Name": "日之书",
    "ToolTip": "'它曾经是由日之能量和力量做成的'\n'使用它会将您的太阳类型更改为自定义类型.\n''观察到所需的太阳类型文本后，玩家需要再次进入主菜单并重新加载mods以调整设置.'\n'当游戏关闭时，太阳类型被重新设置为原版太阳.'",
    "SetBonus": "",
    "ModifyTooltips": []
  },
  {
    "TypeName": "TownBell",
    "Namespace": "AFKPETS.Items",
    "Name": "镇铃",
    "Tooltip": "'它曾被用于镇中心保护住民和房屋.'\n'当它被使用的时候，它会将你所有的NPC生成到玩家的位置.'",
    "SetBonus": "",
    "ModifyTooltips": []
  },
  {
    "TypeName": "Twilightinabottle",
    "Namespace": "AFKPETS.Items",
    "Name": "瓶中暮光",
    "ToolTip": "'它充满了古代恒星的遗骸.'\n'它看起来既美丽又强大'\n'它允许你在你的库存中使用四柱碎片来获取碎片的力量.'",
    "SetBonus": "",
    "ModifyTooltips": []
  },
  {
    "TypeName": "VoidalThing",
    "Namespace": "AFKPETS.Items",
    "Name": "",
    "Tooltip": "“它在盯着你”\n“使用时数据会变成你物品栏中的第一个物品。”\n“如果那个位置是空的，那么你什么都得不到”\n",
    "SetBonus": "",
    "ModifyTooltips": []
  },
  {
    "TypeName": "VoidBottle",
    "Namespace": "AFKPETS.Items",
    "Name": "瓶中虚无",
    "Tooltip": "“它会用生命能量中和你的debuff”\n“喝了之后它会给你虚弱药剂”",
    "SetBonus": "",
    "ModifyTooltips": []
  },
  {
    "TypeName": "VoidCore",
    "Namespace": "AFKPETS.Items",
    "Name": "虚元核心",
    "Tooltip": "'它让你的身体在太空中破碎.'",
    "SetBonus": "",
    "ModifyTooltips": []
  },
  {
    "TypeName": "VoidFishingRod",
    "Namespace": "AFKPETS.Items",
    "Name": "虚无鱼竿",
    "ToolTip": "当你看到它的核心时，你会觉得你并不孤单\n'可以一次抛出八个钩'\n'它的线条永不断裂，它有声纳、板条箱和工具箱的效果'\n[c/ffff00:趣味模式专属]",
    "SetBonus": "",
    "ModifyTooltips": []
  }
]