[
  {
    "TypeName": "AncientBell",
    "Namespace": "AFKPETS.Items.Minions",
    "Name": "古老铃铛",
    "Tooltip": "“它看起来对某人很重要”",
    "SetBonus": "",
    "ModifyTooltips": []
  },
  {
    "TypeName": "AncientCrown",
    "Namespace": "AFKPETS.Items.Minions",
    "Name": "古老的王冠",
    "ToolTip": "'只是拿着它也会让你萌生出寻找公主的意图.'",
    "SetBonus": "",
    "ModifyTooltips": []
  },
  {
    "TypeName": "AncientGoldRing",
    "Namespace": "AFKPETS.Items.Minions",
    "Name": "古老的金戒指",
    "Tooltip": "'你的精神力量愈发强大.'",
    "SetBonus": "",
    "ModifyTooltips": []
  },
  {
    "TypeName": "AncientHelmet",
    "Namespace": "AFKPETS.Items.Minions",
    "Name": "古老的头盔",
    "Tooltip": "“它属于真正的女主角”",
    "SetBonus": "",
    "ModifyTooltips": []
  },
  {
    "TypeName": "AncientKatana",
    "Namespace": "AFKPETS.Items.Minions",
    "Name": "古老的武士刀",
    "Tooltip": "“某人最爱的刀”",
    "SetBonus": "",
    "ModifyTooltips": []
  },
  {
    "TypeName": "AncientMask",
    "Namespace": "AFKPETS.Items.Minions",
    "Name": "古老的面具",
    "Tooltip": "“看上去真的很酷”",
    "SetBonus": "",
    "ModifyTooltips": []
  },
  {
    "TypeName": "AngelicMask",
    "Namespace": "AFKPETS.Items.Minions",
    "Name": "天使面具",
    "ToolTip": "“它看上去十分'机械'.”",
    "SetBonus": "",
    "ModifyTooltips": []
  },
  {
    "TypeName": "AnimalFeed",
    "Namespace": "AFKPETS.Items.Minions",
    "Name": "饲料",
    "ToolTip": "'它可能吸引某些东西.'",
    "SetBonus": "",
    "ModifyTooltips": []
  },
  {
    "TypeName": "Apple",
    "Namespace": "AFKPETS.Items.Minions",
    "Name": "苹果",
    "Tooltip": "“看起来眼睛也喜欢水果。”\n“看起来像是从另一个世界来的。”",
    "SetBonus": "",
    "ModifyTooltips": []
  },
  {
    "TypeName": "AyaShameimaruDoll",
    "Namespace": "AFKPETS.Items.Minions",
    "Name": "射命丸文玩偶",
    "Tooltip": "“看起来很可爱。”",
    "SetBonus": "",
    "ModifyTooltips": []
  },
  {
    "TypeName": "BaBaPet",
    "Namespace": "AFKPETS.Items.Minions",
    "Name": "BABA精华",
    "ToolTip": "'它是由精神和魔力形成的'\n'天使们正在努力理解名词的力量'",
    "SetBonus": "",
    "ModifyTooltips": []
  },
  {
    "TypeName": "Baby",
    "Namespace": "AFKPETS.Items.Minions",
    "Name": "婴儿",
    "ToolTip": "“某人可能在寻找她。”\n[c/ffff00:趣味模式专属]",
    "SetBonus": "",
    "ModifyTooltips": []
  },
  {
    "TypeName": "BaseBallBat",
    "Namespace": "AFKPETS.Items.Minions",
    "Name": "棒球棍",
    "ToolTip": "'它可能对幽灵和噩梦有好处'",
    "SetBonus": "",
    "ModifyTooltips": []
  },
  {
    "TypeName": "Beef",
    "Namespace": "AFKPETS.Items.Minions",
    "Name": "牛肉",
    "Tooltip": "“还是温的”",
    "SetBonus": "",
    "ModifyTooltips": []
  },
  {
    "TypeName": "BellHairBand",
    "Namespace": "AFKPETS.Items.Minions",
    "Name": "钟形发带",
    "ToolTip": "'看起来很可爱'",
    "SetBonus": "",
    "ModifyTooltips": []
  },
  {
    "TypeName": "BigRadCannister",
    "Namespace": "AFKPETS.Items.Minions",
    "Name": "大辐射罐",
    "ToolTip": "'你不太确定你能不能安全携带它'",
    "SetBonus": "",
    "ModifyTooltips": []
  },
  {
    "TypeName": "BlackBell",
    "Namespace": "AFKPETS.Items.Minions",
    "Name": "黑铃铛",
    "Tooltip": "“它看上去很特殊”",
    "SetBonus": "",
    "ModifyTooltips": []
  },
  {
    "TypeName": "BlizzardWand",
    "Namespace": "AFKPETS.Items.Minions",
    "Name": "暴雪法杖",
    "Tooltip": "“有阻止全球变暖的潜力”",
    "SetBonus": "",
    "ModifyTooltips": []
  },
  {
    "TypeName": "Blood",
    "Namespace": "AFKPETS.Items.Minions",
    "Name": "血",
    "Tooltip": "“能吸引另一个宠物。”",
    "SetBonus": "",
    "ModifyTooltips": []
  },
  {
    "TypeName": "BloodCrystal",
    "Namespace": "AFKPETS.Items.Minions",
    "Name": "血液晶体",
    "Tooltip": "“你开始掉san值”",
    "SetBonus": "",
    "ModifyTooltips": []
  },
  {
    "TypeName": "BloodDye",
    "Namespace": "AFKPETS.Items.Minions",
    "Name": "血染料",
    "Tooltip": "“它可能会吸引另一个宠物。”",
    "SetBonus": "",
    "ModifyTooltips": []
  },
  {
    "TypeName": "BloodFlask",
    "Namespace": "AFKPETS.Items.Minions",
    "Name": "瓶中血",
    "Tooltip": "“能吸引另一个宠物。”",
    "SetBonus": "",
    "ModifyTooltips": []
  },
  {
    "TypeName": "BloodJar",
    "Namespace": "AFKPETS.Items.Minions",
    "Name": "血瓶",
    "Tooltip": "“能吸引另一个宠物。”",
    "SetBonus": "",
    "ModifyTooltips": []
  },
  {
    "TypeName": "BloodPotion",
    "Namespace": "AFKPETS.Items.Minions",
    "Name": "血液药剂",
    "Tooltip": "“能吸引另一个宠物。”",
    "SetBonus": "",
    "ModifyTooltips": []
  },
  {
    "TypeName": "BloodSoup",
    "Namespace": "AFKPETS.Items.Minions",
    "Name": "血液汤",
    "Tooltip": "“能吸引另一个宠物。”",
    "SetBonus": "",
    "ModifyTooltips": []
  },
  {
    "TypeName": "BloodVial",
    "Namespace": "AFKPETS.Items.Minions",
    "Name": "采血瓶",
    "ToolTip": "'有人可能喜欢它的味道'",
    "SetBonus": "",
    "ModifyTooltips": []
  },
  {
    "TypeName": "BloodyBass",
    "Namespace": "AFKPETS.Items.Minions",
    "Name": "血腥鲈鱼",
    "Tooltip": "“我能用它干嘛？”",
    "SetBonus": "",
    "ModifyTooltips": []
  },
  {
    "TypeName": "BloodyRotor",
    "Namespace": "AFKPETS.Items.Minions",
    "Name": "血腥旋翼",
    "Tooltip": "召唤阿帕奇直升机为你作战\n“阿帕奇直升机占2个随从位”",
    "SetBonus": "",
    "ModifyTooltips": []
  },
  {
    "TypeName": "BlueCrystalShard",
    "Namespace": "AFKPETS.Items.Minions",
    "Name": "蓝色水晶碎片",
    "ToolTip": "“收集200个可能给你另一次生命。”\n[c/ffff00:趣味模式专属]",
    "SetBonus": "",
    "ModifyTooltips": []
  },
  {
    "TypeName": "BlueEtherianMana",
    "Namespace": "AFKPETS.Items.Minions",
    "Name": "蓝色天国魔力",
    "Tooltip": "“某人想要拿走它。”",
    "SetBonus": "",
    "ModifyTooltips": []
  },
  {
    "TypeName": "BlueFeather",
    "Namespace": "AFKPETS.Items.Minions",
    "Name": "蓝色羽毛",
    "Tooltip": "“这羽毛是哪里来的？”",
    "SetBonus": "",
    "ModifyTooltips": []
  },
  {
    "TypeName": "BlueInkling",
    "Namespace": "AFKPETS.Items.Minions",
    "Name": "蓝鱿鱼",
    "ToolTip": "'它仔细地看着你.'",
    "SetBonus": "",
    "ModifyTooltips": []
  },
  {
    "TypeName": "BlueRose",
    "Namespace": "AFKPETS.Items.Minions",
    "Name": "湛蓝玫瑰",
    "ToolTip": "'握住它时会让你觉得它属于某人'",
    "SetBonus": "",
    "ModifyTooltips": []
  },
  {
    "TypeName": "BobsBrain",
    "Namespace": "AFKPETS.Items.Minions",
    "Name": "鲍勃的大脑",
    "Tooltip": "“爆炸想法”",
    "SetBonus": "",
    "ModifyTooltips": []
  },
  {
    "TypeName": "BookofLife",
    "Namespace": "AFKPETS.Items.Minions",
    "Name": "生命之书",
    "ToolTip": "'你觉得他想让它回来'",
    "SetBonus": "",
    "ModifyTooltips": []
  },
  {
    "TypeName": "BookofLife2",
    "Namespace": "AFKPETS.Items.Minions",
    "Name": "生命之书",
    "ToolTip": "'也许你应该说服她不要把这个给他'",
    "SetBonus": "",
    "ModifyTooltips": []
  },
  {
    "TypeName": "BowsersFlag",
    "Namespace": "AFKPETS.Items.Minions",
    "Name": "黑暗旗帜",
    "Tooltip": "“一个王国的旗帜”",
    "SetBonus": "",
    "ModifyTooltips": []
  },
  {
    "TypeName": "BoxofBones",
    "Namespace": "AFKPETS.Items.Minions",
    "Name": "骨之盒",
    "Tooltip": "“闻着像意大利面的骨头”",
    "SetBonus": "",
    "ModifyTooltips": []
  },
  {
    "TypeName": "Brain",
    "Namespace": "AFKPETS.Items.Minions",
    "Name": "脑子",
    "ToolTip": "'召唤一个宠物僵尸'",
    "SetBonus": "",
    "ModifyTooltips": []
  },
  {
    "TypeName": "BrokenArmor",
    "Namespace": "AFKPETS.Items.Minions",
    "Name": "损坏的英雄铠甲",
    "Tooltip": "'这种盔甲曾经属于一个被人类的贪婪吞噬的民族的保护者'",
    "SetBonus": "",
    "ModifyTooltips": []
  },
  {
    "TypeName": "BrokenHammer",
    "Namespace": "AFKPETS.Items.Minions",
    "Name": "损坏的锤子",
    "Tooltip": "“这可不让他高兴”\n“或许我能修好它”",
    "SetBonus": "",
    "ModifyTooltips": []
  },
  {
    "TypeName": "BrokenHeart",
    "Namespace": "AFKPETS.Items.Minions",
    "Name": "破损之心",
    "ToolTip": "'召唤一只宠物丘比特'",
    "SetBonus": "",
    "ModifyTooltips": []
  },
  {
    "TypeName": "BrokenWashingMachine",
    "Namespace": "AFKPETS.Items.Minions",
    "Name": "坏掉的洗衣机",
    "Tooltip": "'随着古代军阀的力量而振动'",
    "SetBonus": "",
    "ModifyTooltips": []
  },
  {
    "TypeName": "BrokenWashingMachinewithHat",
    "Namespace": "AFKPETS.Items.Minions",
    "Name": "受祝损坏洗衣机",
    "ToolTip": "'其他物品似乎都存在它里面.'\n'当一个人证明了自己之后，它就变得很有技巧了'",
    "SetBonus": "",
    "ModifyTooltips": []
  },
  {
    "TypeName": "Broom2",
    "Namespace": "AFKPETS.Items.Minions",
    "Name": "看门人的扫帚",
    "Tooltip": "'看来时间到了!'",
    "SetBonus": "",
    "ModifyTooltips": []
  },
  {
    "TypeName": "Bubble",
    "Namespace": "AFKPETS.Items.Minions",
    "Name": "泡泡",
    "Tooltip": "“渔夫在哪里找到这个的？”",
    "SetBonus": "",
    "ModifyTooltips": []
  },
  {
    "TypeName": "BuilderHammer",
    "Namespace": "AFKPETS.Items.Minions",
    "Name": "Sledge爆破锤",
    "Tooltip": "“开辟新道路的关键”",
    "SetBonus": "",
    "ModifyTooltips": []
  },
  {
    "TypeName": "Bulb",
    "Namespace": "AFKPETS.Items.Minions",
    "Name": "太阳",
    "ToolTip": "“它有能力为世界上大部分生物提供能量”\n[c/ffff00:趣味模式专属]",
    "SetBonus": "",
    "ModifyTooltips": []
  },
  {
    "TypeName": "Bumbo",
    "Namespace": "AFKPETS.Items.Minions",
    "Name": "笨笨",
    "ToolTip": "'笨笨想要些硬币!'\n'如果你包里的钱足够的话,右键将会给笨笨一个金币.'",
    "SetBonus": "",
    "ModifyTooltips": []
  },
  {
    "TypeName": "BurningBall",
    "Namespace": "AFKPETS.Items.Minions",
    "Name": "烈焰球",
    "ToolTip": "'它太烫了,根本拿不住'",
    "SetBonus": "",
    "ModifyTooltips": []
  },
  {
    "TypeName": "BurningDarkSkull",
    "Namespace": "AFKPETS.Items.Minions",
    "Name": "燃烧的黑暗头骨",
    "Tooltip": "召唤红恶魔为你作战",
    "SetBonus": "",
    "ModifyTooltips": []
  },
  {
    "TypeName": "BurningSkull",
    "Namespace": "AFKPETS.Items.Minions",
    "Name": "燃烧的头骨",
    "Tooltip": "召唤恶魔为你作战",
    "SetBonus": "",
    "ModifyTooltips": []
  },
  {
    "TypeName": "CacodemonEye",
    "Namespace": "AFKPETS.Items.Minions",
    "Name": "恶灵之眼",
    "Tooltip": "召唤一个恶灵为你作战\n同时只能存在一个恶灵",
    "SetBonus": "",
    "ModifyTooltips": []
  },
  {
    "TypeName": "CandyRotor",
    "Namespace": "AFKPETS.Items.Minions",
    "Name": "糖果螺旋桨",
    "Tooltip": "召唤一个精灵直升机为你作战.",
    "SetBonus": "",
    "ModifyTooltips": []
  },
  {
    "TypeName": "Card",
    "Namespace": "AFKPETS.Items.Minions",
    "Name": "怪异的卡牌",
    "Tooltip": "我是需要魔法还是灵丹妙药?",
    "SetBonus": "",
    "ModifyTooltips": []
  },
  {
    "TypeName": "ChaosEmerald",
    "Namespace": "AFKPETS.Items.Minions",
    "Name": "混沌翡翠",
    "ToolTip": "'它使用电力脉冲'\n[c/ffff00:趣味模式专属]",
    "SetBonus": "",
    "ModifyTooltips": []
  },
  {
    "TypeName": "ChaosHeart",
    "Namespace": "AFKPETS.Items.Minions",
    "Name": "混沌之心",
    "ToolTip": "“它没有被摧毁吗？”\n[c/ffff00:趣味模式专属]",
    "SetBonus": "",
    "ModifyTooltips": []
  },
  {
    "TypeName": "ChargedBaby",
    "Namespace": "AFKPETS.Items.Minions",
    "Name": "电池宝宝",
    "Tooltip": "'BBBZZZZZT!'",
    "SetBonus": "",
    "ModifyTooltips": []
  },
  {
    "TypeName": "ChenDoll",
    "Namespace": "AFKPETS.Items.Minions",
    "Name": "橙的玩偶",
    "ToolTip": "'它看上去真可爱'",
    "SetBonus": "",
    "ModifyTooltips": []
  },
  {
    "TypeName": "ClothiersDiary",
    "Namespace": "AFKPETS.Items.Minions",
    "Name": "服装商日记",
    "ToolTip": "'它可能包含丢失机械事故的证据.'",
    "SetBonus": "",
    "ModifyTooltips": []
  },
  {
    "TypeName": "ClothofDarkPrince",
    "Namespace": "AFKPETS.Items.Minions",
    "Name": "古老的衣物",
    "Tooltip": "'他们曾经属于一个黑暗王子'",
    "SetBonus": "",
    "ModifyTooltips": []
  },
  {
    "TypeName": "Cloud",
    "Namespace": "AFKPETS.Items.Minions",
    "Name": "疑云",
    "Tooltip": "“某人躲在里面”",
    "SetBonus": "",
    "ModifyTooltips": []
  },
  {
    "TypeName": "CloudStrifeDoll",
    "Namespace": "AFKPETS.Items.Minions",
    "Name": "克劳德·斯特莱夫玩偶",
    "ToolTip": "'可惜没有附赠他的大剑'",
    "SetBonus": "",
    "ModifyTooltips": []
  },
  {
    "TypeName": "CommandoSkull",
    "Namespace": "AFKPETS.Items.Minions",
    "Name": "突击队头骨",
    "Tooltip": "他会给他们带来恐惧并让他们为你作战",
    "SetBonus": "",
    "ModifyTooltips": []
  },
  {
    "TypeName": "ConcentratedNighmare",
    "Namespace": "AFKPETS.Items.Minions",
    "Name": "云集的噩梦",
    "Tooltip": "'看起来它想保护你，因为它认为你是它的宠物.'\n'它会保护你免受黑暗、失明、阻碍和恐惧的黑暗的侵袭.'",
    "SetBonus": "",
    "ModifyTooltips": []
  },
  {
    "TypeName": "CrowFeather",
    "Namespace": "AFKPETS.Items.Minions",
    "Name": "黑色羽毛",
    "Tooltip": "“这羽毛是哪里来的？”",
    "SetBonus": "",
    "ModifyTooltips": []
  },
  {
    "TypeName": "CrystalBass",
    "Namespace": "AFKPETS.Items.Minions",
    "Name": "水晶鲈鱼",
    "Tooltip": "“我能用它干嘛？”",
    "SetBonus": "",
    "ModifyTooltips": []
  },
  {
    "TypeName": "CursedSpiritBottle",
    "Namespace": "AFKPETS.Items.Minions",
    "Name": "瓶中咒魂",
    "Tooltip": "召唤一个诅咒灵魂为你作战",
    "SetBonus": "",
    "ModifyTooltips": []
  },
  {
    "TypeName": "CursedTooth",
    "Namespace": "AFKPETS.Items.Minions",
    "Name": "受诅咒的牙齿",
    "Tooltip": "“我会被诅咒吗，或者...？”",
    "SetBonus": "",
    "ModifyTooltips": []
  },
  {
    "TypeName": "CuteRibbon",
    "Namespace": "AFKPETS.Items.Minions",
    "Name": "红色丝带",
    "ToolTip": "它看起来很可爱\n[c/ffff00:趣味模式专属]",
    "SetBonus": "",
    "ModifyTooltips": []
  },
  {
    "TypeName": "DaiyouseiDoll",
    "Namespace": "AFKPETS.Items.Minions",
    "Name": "大妖精玩偶",
    "Tooltip": "它看起来很可爱",
    "SetBonus": "",
    "ModifyTooltips": []
  },
  {
    "TypeName": "DarkBall",
    "Namespace": "AFKPETS.Items.Minions",
    "Name": "黑暗水晶球",
    "Tooltip": "“它会做什么？”",
    "SetBonus": "",
    "ModifyTooltips": []
  },
  {
    "TypeName": "DarkEnergyBall",
    "Namespace": "AFKPETS.Items.Minions",
    "Name": "暗能量球",
    "ToolTip": "'即使拿着这个也会让你感觉更强'\n[c/ffff00:趣味模式专属]",
    "SetBonus": "",
    "ModifyTooltips": []
  },
  {
    "TypeName": "DarkGel",
    "Namespace": "AFKPETS.Items.Minions",
    "Name": "黑暗凝胶",
    "Tooltip": "“这是从哪里来的？”",
    "SetBonus": "",
    "ModifyTooltips": []
  },
  {
    "TypeName": "DarkLantern",
    "Namespace": "AFKPETS.Items.Minions",
    "Name": "黑暗灯笼",
    "Tooltip": "召唤收割者为你作战",
    "SetBonus": "",
    "ModifyTooltips": []
  },
  {
    "TypeName": "DarkRibbon",
    "Namespace": "AFKPETS.Items.Minions",
    "Name": "深色丝带",
    "Tooltip": "'这可能会让某人感到很开心.'",
    "SetBonus": "",
    "ModifyTooltips": []
  },
  {
    "TypeName": "DarkShield",
    "Namespace": "AFKPETS.Items.Minions",
    "Name": "黑暗球",
    "Tooltip": "'你觉得有人在里面'",
    "SetBonus": "",
    "ModifyTooltips": []
  },
  {
    "TypeName": "DeadCat2",
    "Namespace": "AFKPETS.Items.Minions",
    "Name": "死猫",
    "Tooltip": "'九条命'",
    "SetBonus": "",
    "ModifyTooltips": []
  },
  {
    "TypeName": "DeathNote",
    "Namespace": "AFKPETS.Items.Minions",
    "Name": "死亡笔记",
    "Tooltip": "可能某位死神大人把它落在下界了.'",
    "SetBonus": "",
    "ModifyTooltips": []
  },
  {
    "TypeName": "DehydratedSeaStar",
    "Namespace": "AFKPETS.Items.Minions",
    "Name": "脱水海星",
    "Tooltip": "'看起来又干燥又悲伤.'",
    "SetBonus": "",
    "ModifyTooltips": []
  },
  {
    "TypeName": "DehydratedSponge",
    "Namespace": "AFKPETS.Items.Minions",
    "Name": "脱水海绵",
    "Tooltip": "'看起来又干燥又悲伤.'",
    "SetBonus": "",
    "ModifyTooltips": []
  },
  {
    "TypeName": "DemonBloodSword",
    "Namespace": "AFKPETS.Items.Minions",
    "Name": "恶魔血剑",
    "ToolTip": "'你觉得它属于一个家庭'",
    "SetBonus": "",
    "ModifyTooltips": []
  },
  {
    "TypeName": "DesertCore",
    "Namespace": "AFKPETS.Items.Minions",
    "Name": "荒漠核心",
    "Tooltip": "“它属于某个连不上网的人。”",
    "SetBonus": "",
    "ModifyTooltips": []
  },
  {
    "TypeName": "DesertStaff",
    "Namespace": "AFKPETS.Items.Minions",
    "Name": "荒漠法杖",
    "Tooltip": "召唤一个恐龙为你作战",
    "SetBonus": "",
    "ModifyTooltips": []
  },
  {
    "TypeName": "DevilMask",
    "Namespace": "AFKPETS.Items.Minions",
    "Name": "能剧鬼面",
    "Tooltip": "'看起来属于某人'",
    "SetBonus": "",
    "ModifyTooltips": []
  },
  {
    "TypeName": "DogCookie",
    "Namespace": "AFKPETS.Items.Minions",
    "Name": "狗饼",
    "Tooltip": "“它是给某个小可爱准备的”\n“感谢ThePixelatedGamer8的协助。”",
    "SetBonus": "",
    "ModifyTooltips": []
  },
  {
    "TypeName": "DogHead",
    "Namespace": "AFKPETS.Items.Minions",
    "Name": "怪物的残骸",
    "Tooltip": "'你为什么要这么做?'",
    "SetBonus": "",
    "ModifyTooltips": []
  },
  {
    "TypeName": "Dream",
    "Namespace": "AFKPETS.Items.Minions",
    "Name": "云集的迷梦",
    "ToolTip": "'它会让你回想起自己的梦想'\n[c/ffff00:趣味模式专属]",
    "SetBonus": "",
    "ModifyTooltips": []
  },
  {
    "TypeName": "DriedBass",
    "Namespace": "AFKPETS.Items.Minions",
    "Name": "干鲈鱼",
    "Tooltip": "“我能用它干嘛？”",
    "SetBonus": "",
    "ModifyTooltips": []
  },
  {
    "TypeName": "DryBaby",
    "Namespace": "AFKPETS.Items.Minions",
    "Name": "干燥宝宝",
    "ToolTip": "'不朽的朋友'\n[c/ffff00:趣味模式专属]",
    "SetBonus": "",
    "ModifyTooltips": []
  },
  {
    "TypeName": "DuotinePill",
    "Namespace": "AFKPETS.Items.Minions",
    "Name": "安宫丸",
    "ToolTip": "'怪异的红色药丸，相当不祥'",
    "SetBonus": "",
    "ModifyTooltips": []
  },
  {
    "TypeName": "ElectricCoin",
    "Namespace": "AFKPETS.Items.Minions",
    "Name": "带电硬币",
    "ToolTip": "'看上去十分危险'",
    "SetBonus": "",
    "ModifyTooltips": []
  },
  {
    "TypeName": "EllensDiary",
    "Namespace": "AFKPETS.Items.Minions",
    "Name": "Ellen的日记",
    "Tooltip": "“它是用日语写的。”",
    "SetBonus": "",
    "ModifyTooltips": []
  },
  {
    "TypeName": "EnergyCore",
    "Namespace": "AFKPETS.Items.Minions",
    "Name": "能源核心",
    "Tooltip": "召唤桑塔克-NK1为你作战\n同时只能存在一个桑塔克-NK1",
    "SetBonus": "",
    "ModifyTooltips": []
  },
  {
    "TypeName": "EnergyHeart",
    "Namespace": "AFKPETS.Items.Minions",
    "Name": "能量之心",
    "Tooltip": "“我能把它用作生命果实吗？”",
    "SetBonus": "",
    "ModifyTooltips": []
  },
  {
    "TypeName": "EvilSkull",
    "Namespace": "AFKPETS.Items.Minions",
    "Name": "恶魔头骨",
    "Tooltip": "“我希望它不会试着攻击你”",
    "SetBonus": "",
    "ModifyTooltips": []
  },
  {
    "TypeName": "ExplosiveHat",
    "Namespace": "AFKPETS.Items.Minions",
    "Name": "弧形巫师帽",
    "ToolTip": "'充满了爆裂魔法的味道'",
    "SetBonus": "",
    "ModifyTooltips": []
  },
  {
    "TypeName": "ExplosiveJam",
    "Namespace": "AFKPETS.Items.Minions",
    "Name": "爆炸果酱",
    "Tooltip": "“某人的最爱。”",
    "SetBonus": "",
    "ModifyTooltips": []
  },
  {
    "TypeName": "EyeinaGlassJar",
    "Namespace": "AFKPETS.Items.Minions",
    "Name": "玻璃瓶中眼",
    "Tooltip": "“这眼睛像是在等待某人”",
    "SetBonus": "",
    "ModifyTooltips": []
  },
  {
    "TypeName": "FabuRune",
    "Namespace": "AFKPETS.Items.Minions",
    "Name": "乌鲁兹的符文",
    "Tooltip": "'它是古代军阀的力量形成的'",
    "SetBonus": "",
    "ModifyTooltips": []
  },
  {
    "TypeName": "FairyinaBottle",
    "Namespace": "AFKPETS.Items.Minions",
    "Name": "瓶中仙女",
    "Tooltip": "“它看起来很小”",
    "SetBonus": "",
    "ModifyTooltips": []
  },
  {
    "TypeName": "FallenSoul",
    "Namespace": "AFKPETS.Items.Minions",
    "Name": "堕落灵魂",
    "ToolTip": "'这是我主顾的东西'",
    "SetBonus": "",
    "ModifyTooltips": []
  },
  {
    "TypeName": "Fan",
    "Namespace": "AFKPETS.Items.Minions",
    "Name": "扇子",
    "Tooltip": "“它看起来很特殊”",
    "SetBonus": "",
    "ModifyTooltips": []
  },
  {
    "TypeName": "FireSpiritBottle",
    "Namespace": "AFKPETS.Items.Minions",
    "Name": "瓶中火魂",
    "Tooltip": "召唤一个火之灵魂为你作战",
    "SetBonus": "",
    "ModifyTooltips": []
  },
  {
    "TypeName": "FleshMeal",
    "Namespace": "AFKPETS.Items.Minions",
    "Name": "鲜肉",
    "Tooltip": "“看上去像坏了的。”",
    "SetBonus": "",
    "ModifyTooltips": []
  },
  {
    "TypeName": "ForagerPickaxe",
    "Namespace": "AFKPETS.Items.Minions",
    "Name": "异界鹤嘴锄",
    "ToolTip": "'看起来有人可能需要这个'\n[c/ffff00:趣味模式专属]",
    "SetBonus": "",
    "ModifyTooltips": []
  },
  {
    "TypeName": "ForgottenJoyfulEye",
    "Namespace": "AFKPETS.Items.Minions",
    "Name": "愉悦之眼",
    "Tooltip": "'看起来不正常'",
    "SetBonus": "",
    "ModifyTooltips": []
  },
  {
    "TypeName": "ForgottenOrb",
    "Namespace": "AFKPETS.Items.Minions",
    "Name": "???之球",
    "ToolTip": "'它让你感到???'\n[c/ffff00:趣味模式专属]",
    "SetBonus": "",
    "ModifyTooltips": []
  },
  {
    "TypeName": "FreedomTorch",
    "Namespace": "AFKPETS.Items.Minions",
    "Name": "地狱火把",
    "ToolTip": "“别朝它看，否则你的san值...”\n[c/ffff00:趣味模式专属]",
    "SetBonus": "",
    "ModifyTooltips": []
  },
  {
    "TypeName": "FriendshipCookie",
    "Namespace": "AFKPETS.Items.Minions",
    "Name": "友情饼干",
    "Tooltip": "“它很美味！”\n“看起来是一个狂热信徒给另一个的礼物。”",
    "SetBonus": "",
    "ModifyTooltips": []
  },
  {
    "TypeName": "FrostStaff",
    "Namespace": "AFKPETS.Items.Minions",
    "Name": "冰霜法杖",
    "Tooltip": "召唤冰霜元素为你作战",
    "SetBonus": "",
    "ModifyTooltips": []
  },
  {
    "TypeName": "FrozenCrystal",
    "Namespace": "AFKPETS.Items.Minions",
    "Name": "冰冻水晶",
    "Tooltip": "“就算碰它都能让你犯低温症”",
    "SetBonus": "",
    "ModifyTooltips": []
  },
  {
    "TypeName": "FrozenMouse",
    "Namespace": "AFKPETS.Items.Minions",
    "Name": "结冰的老鼠",
    "ToolTip": "'怎么化不开呢?'",
    "SetBonus": "",
    "ModifyTooltips": []
  },
  {
    "TypeName": "Fruit",
    "Namespace": "AFKPETS.Items.Minions",
    "Name": "水果",
    "Tooltip": "“看上去不错。”",
    "SetBonus": "",
    "ModifyTooltips": []
  },
  {
    "TypeName": "GalacticShield",
    "Namespace": "AFKPETS.Items.Minions",
    "Name": "银河盾",
    "ToolTip": "'看上去来自异世界'",
    "SetBonus": "",
    "ModifyTooltips": []
  },
  {
    "TypeName": "Garlic",
    "Namespace": "AFKPETS.Items.Minions",
    "Name": "大蒜",
    "Tooltip": "“它看上去闻起来很自然”",
    "SetBonus": "",
    "ModifyTooltips": []
  },
  {
    "TypeName": "GhostStaff",
    "Namespace": "AFKPETS.Items.Minions",
    "Name": "鬼魂法杖",
    "Tooltip": "召唤鬼魂为你作战",
    "SetBonus": "",
    "ModifyTooltips": []
  },
  {
    "TypeName": "GiantShell",
    "Namespace": "AFKPETS.Items.Minions",
    "Name": "巨壳",
    "Tooltip": "“看上去它吓坏了。我可能不该杀了它的。”",
    "SetBonus": "",
    "ModifyTooltips": []
  },
  {
    "TypeName": "GiantSword",
    "Namespace": "AFKPETS.Items.Minions",
    "Name": "巨剑",
    "Tooltip": "“真的很大”",
    "SetBonus": "",
    "ModifyTooltips": []
  },
  {
    "TypeName": "GilgameshDoll",
    "Namespace": "AFKPETS.Items.Minions",
    "Name": "吉尔伽美什玩偶",
    "ToolTip": "'看着它会让你觉得自己像个英雄'",
    "SetBonus": "",
    "ModifyTooltips": []
  },
  {
    "TypeName": "GoblinBag",
    "Namespace": "AFKPETS.Items.Minions",
    "Name": "哥布林战利品包",
    "Tooltip": "也许你可以用这个雇佣他们.",
    "SetBonus": "",
    "ModifyTooltips": []
  },
  {
    "TypeName": "GoheiStick",
    "Namespace": "AFKPETS.Items.Minions",
    "Name": "御币",
    "Tooltip": "“看起来简单，但是足以伤到紫老aosdajfasjl”",
    "SetBonus": "",
    "ModifyTooltips": []
  },
  {
    "TypeName": "GoldenBonnieHead",
    "Namespace": "AFKPETS.Items.Minions",
    "Name": "黄金邦妮头",
    "Tooltip": "“即使握着它也会让你感到恐惧”",
    "SetBonus": "",
    "ModifyTooltips": []
  },
  {
    "TypeName": "GoldenCarrot",
    "Namespace": "AFKPETS.Items.Minions",
    "Name": "金胡萝卜",
    "Tooltip": "“那个物种会喜欢这东西？”",
    "SetBonus": "",
    "ModifyTooltips": []
  },
  {
    "TypeName": "GoldenPistol",
    "Namespace": "AFKPETS.Items.Minions",
    "Name": "六弹射手",
    "Tooltip": "'这个像左轮手枪.'",
    "SetBonus": "",
    "ModifyTooltips": []
  },
  {
    "TypeName": "GoldenSmashBall",
    "Namespace": "AFKPETS.Items.Minions",
    "Name": "黄金Smash Ball",
    "Tooltip": "“为了任天堂®明星大乱斗的荣耀！”",
    "SetBonus": "",
    "ModifyTooltips": []
  },
  {
    "TypeName": "GoldFeather",
    "Namespace": "AFKPETS.Items.Minions",
    "Name": "金色羽毛",
    "Tooltip": "“这羽毛是哪里来的？”",
    "SetBonus": "",
    "ModifyTooltips": []
  },
  {
    "TypeName": "GoldFreddyToy",
    "Namespace": "AFKPETS.Items.Minions",
    "Name": "黄金弗雷迪玩偶",
    "Tooltip": "“它在轻语将所有碎片收集起来”",
    "SetBonus": "",
    "ModifyTooltips": []
  },
  {
    "TypeName": "GoldRing",
    "Namespace": "AFKPETS.Items.Minions",
    "Name": "黄金指环",
    "Tooltip": "“应该很贵。”",
    "SetBonus": "",
    "ModifyTooltips": []
  },
  {
    "TypeName": "GoonieSekeleton",
    "Namespace": "AFKPETS.Items.Minions",
    "Name": "鸟骷髅",
    "ToolTip": "“它还在移动”\n[c/ffff00:趣味模式专属]",
    "SetBonus": "",
    "ModifyTooltips": []
  },
  {
    "TypeName": "GrandHat",
    "Namespace": "AFKPETS.Items.Minions",
    "Name": "大帽子",
    "ToolTip": "'它是由被遗忘的英雄的力量形成的'",
    "SetBonus": "",
    "ModifyTooltips": []
  },
  {
    "TypeName": "GreenEtherianMana",
    "Namespace": "AFKPETS.Items.Minions",
    "Name": "结晶绿色天国魔力",
    "Tooltip": "“某人想要拿走它。”",
    "SetBonus": "",
    "ModifyTooltips": []
  },
  {
    "TypeName": "GreenInkling",
    "Namespace": "AFKPETS.Items.Minions",
    "Name": "绿鱿鱼",
    "Tooltip": "'它仔细地看着你.'",
    "SetBonus": "",
    "ModifyTooltips": []
  },
  {
    "TypeName": "GreenOnion",
    "Namespace": "AFKPETS.Items.Minions",
    "Name": "绿葱",
    "Tooltip": "“为了所有歌唱者的领袖，它被制造了出来”",
    "SetBonus": "",
    "ModifyTooltips": []
  },
  {
    "TypeName": "GrossSack",
    "Namespace": "AFKPETS.Items.Minions",
    "Name": "恶心的袋子",
    "Tooltip": "“闻着像血腥之地”",
    "SetBonus": "",
    "ModifyTooltips": []
  },
  {
    "TypeName": "GuidesAutopsyReport",
    "Namespace": "AFKPETS.Items.Minions",
    "Name": "向导尸检报告",
    "Tooltip": "'一个奇怪案件的线索'",
    "SetBonus": "",
    "ModifyTooltips": []
  },
  {
    "TypeName": "Gyroid",
    "Namespace": "AFKPETS.Items.Minions",
    "Name": "可疑的回转体",
    "Tooltip": "'看起来像活着的瓷砖'",
    "SetBonus": "",
    "ModifyTooltips": []
  },
  {
    "TypeName": "HallowedMoney",
    "Namespace": "AFKPETS.Items.Minions",
    "Name": "神圣硬币",
    "Tooltip": "'它曾被古代文明使用过'",
    "SetBonus": "",
    "ModifyTooltips": []
  },
  {
    "TypeName": "Hammer",
    "Namespace": "AFKPETS.Items.Minions",
    "Name": "锻锤",
    "Tooltip": "'它属于一个小精灵'",
    "SetBonus": "",
    "ModifyTooltips": []
  },
  {
    "TypeName": "HammerofJudgement",
    "Namespace": "AFKPETS.Items.Minions",
    "Name": "审判之锤",
    "Tooltip": "召唤一个裁决者为你战斗.\n同时只能召唤一个裁决者,且裁决者不占用召唤物栏位.\n有很小的几率秒杀BOSS以外的敌人.",
    "SetBonus": "",
    "ModifyTooltips": []
  },
  {
    "TypeName": "HarpyEgg",
    "Namespace": "AFKPETS.Items.Minions",
    "Name": "哈比蛋",
    "ToolTip": "'你觉得它的妈妈现在很担心'",
    "SetBonus": "",
    "ModifyTooltips": []
  },
  {
    "TypeName": "HeadlessBaby",
    "Namespace": "AFKPETS.Items.Minions",
    "Name": "无头宝宝",
    "Tooltip": "“血友”",
    "SetBonus": "",
    "ModifyTooltips": []
  },
  {
    "TypeName": "HeartContaioner",
    "Namespace": "AFKPETS.Items.Minions",
    "Name": "心之容器",
    "Tooltip": "有颗心在里面",
    "SetBonus": "",
    "ModifyTooltips": []
  },
  {
    "TypeName": "HerosSword",
    "Namespace": "AFKPETS.Items.Minions",
    "Name": "英雄之剑",
    "Tooltip": "'真正的英雄之剑'",
    "SetBonus": "",
    "ModifyTooltips": []
  },
  {
    "TypeName": "HiddenBlade",
    "Namespace": "AFKPETS.Items.Minions",
    "Name": "袖剑",
    "ToolTip": "'它可能看起来很小，但它的无声和敏捷会证明它的用处'",
    "SetBonus": "",
    "ModifyTooltips": []
  },
  {
    "TypeName": "HinaKagiyamaDoll",
    "Namespace": "AFKPETS.Items.Minions",
    "Name": "键山雏玩偶",
    "ToolTip": "'即使抱着它也会让敌人感到害怕'",
    "SetBonus": "",
    "ModifyTooltips": []
  },
  {
    "TypeName": "HowtoBuildRobotBook",
    "Namespace": "AFKPETS.Items.Minions",
    "Name": "《如何建造你的非想天则》",
    "ToolTip": "'这是这本书的多元宇宙版本.'\n'初次出版于幻想乡'\n[c/ffff00:趣味模式专属]",
    "SetBonus": "",
    "ModifyTooltips": []
  },
  {
    "TypeName": "HylianShield",
    "Namespace": "AFKPETS.Items.Minions",
    "Name": "海莲盾",
    "ToolTip": "'它是真正的英雄所使用的传奇盾牌之一.'\n",
    "SetBonus": "",
    "ModifyTooltips": []
  },
  {
    "TypeName": "IchorSack",
    "Namespace": "AFKPETS.Items.Minions",
    "Name": "脓血袋",
    "Tooltip": "召唤脓血黏黏怪为你作战",
    "SetBonus": "",
    "ModifyTooltips": []
  },
  {
    "TypeName": "IchorSpiritBottle",
    "Namespace": "AFKPETS.Items.Minions",
    "Name": "瓶中脓血灵",
    "Tooltip": "召唤脓血灵魂为你作战",
    "SetBonus": "",
    "ModifyTooltips": []
  },
  {
    "TypeName": "Junk2",
    "Namespace": "AFKPETS.Items.Minions",
    "Name": "垃圾",
    "Tooltip": "“只是一些活着的垃圾。”",
    "SetBonus": "",
    "ModifyTooltips": []
  },
  {
    "TypeName": "JunkoDoll",
    "Namespace": "AFKPETS.Items.Minions",
    "Name": "纯狐玩偶",
    "Tooltip": "'只是拿着它也能纯化万物'",
    "SetBonus": "",
    "ModifyTooltips": []
  },
  {
    "TypeName": "KahoDoll",
    "Namespace": "AFKPETS.Items.Minions",
    "Name": "被遗忘的玩偶",
    "ToolTip": "'它是根据一个旅行者设计的'\n[c/ffff00:趣味模式专属]",
    "SetBonus": "",
    "ModifyTooltips": []
  },
  {
    "TypeName": "KamekWand",
    "Namespace": "AFKPETS.Items.Minions",
    "Name": "魔法库巴法杖",
    "ToolTip": "'它是用库巴的智慧铸造的'\n[c/ffff00:趣味模式专属]",
    "SetBonus": "",
    "ModifyTooltips": []
  },
  {
    "TypeName": "KegMug",
    "Namespace": "AFKPETS.Items.Minions",
    "Name": "木杯麦芽酒",
    "ToolTip": "'整桶不是有点太多了吗?'",
    "SetBonus": "",
    "ModifyTooltips": []
  },
  {
    "TypeName": "KetchupBottle",
    "Namespace": "AFKPETS.Items.Minions",
    "Name": "番茄酱瓶子",
    "Tooltip": "“考尔比的特殊优惠”",
    "SetBonus": "",
    "ModifyTooltips": []
  },
  {
    "TypeName": "KoakumaDoll",
    "Namespace": "AFKPETS.Items.Minions",
    "Name": "小恶魔玩偶",
    "Tooltip": "“它好可爱”",
    "SetBonus": "",
    "ModifyTooltips": []
  },
  {
    "TypeName": "KoopaShell",
    "Namespace": "AFKPETS.Items.Minions",
    "Name": "库巴的壳",
    "Tooltip": "“有东西在这里面”",
    "SetBonus": "",
    "ModifyTooltips": []
  },
  {
    "TypeName": "KuribohDoll",
    "Namespace": "AFKPETS.Items.Minions",
    "Name": "栗子球玩偶",
    "Tooltip": "“可爱又爆炸”",
    "SetBonus": "",
    "ModifyTooltips": []
  },
  {
    "TypeName": "LightningDoll",
    "Namespace": "AFKPETS.Items.Minions",
    "Name": "雷电玩偶",
    "ToolTip": "'即使拿着它也能让你感到安全'",
    "SetBonus": "",
    "ModifyTooltips": []
  },
  {
    "TypeName": "LilyDoll",
    "Namespace": "AFKPETS.Items.Minions",
    "Name": "莉莉白玩偶",
    "ToolTip": "'它可能会给世界带来春天'\n[c/ffff00:趣味模式专属]",
    "SetBonus": "",
    "ModifyTooltips": []
  },
  {
    "TypeName": "ListofPossesed",
    "Namespace": "AFKPETS.Items.Minions",
    "Name": "灵魂契约书",
    "Tooltip": "“它属于恶魔办公室”",
    "SetBonus": "",
    "ModifyTooltips": []
  },
  {
    "TypeName": "LivingFire",
    "Namespace": "AFKPETS.Items.Minions",
    "Name": "活火焰",
    "Tooltip": "“看似小实则烫”",
    "SetBonus": "",
    "ModifyTooltips": []
  },
  {
    "TypeName": "LostMechanicCase",
    "Namespace": "AFKPETS.Items.Minions",
    "Name": "机修工失踪案",
    "ToolTip": "'只有一个人能使服装商无罪.'",
    "SetBonus": "",
    "ModifyTooltips": []
  },
  {
    "TypeName": "LucinaSword",
    "Namespace": "AFKPETS.Items.Minions",
    "Name": "超世宝剑",
    "ToolTip": "'你觉得这把剑是属于某人的'",
    "SetBonus": "",
    "ModifyTooltips": []
  },
  {
    "TypeName": "MadnessinaBottle",
    "Namespace": "AFKPETS.Items.Minions",
    "Name": "瓶中???",
    "Tooltip": "'它充满了黑暗和疯狂'",
    "SetBonus": "",
    "ModifyTooltips": []
  },
  {
    "TypeName": "MagicBook",
    "Namespace": "AFKPETS.Items.Minions",
    "Name": "魔法师的书",
    "Tooltip": "“它属于红魔馆”",
    "SetBonus": "",
    "ModifyTooltips": []
  },
  {
    "TypeName": "MagicianHat",
    "Namespace": "AFKPETS.Items.Minions",
    "Name": "魔法师的帽子",
    "Tooltip": "“它属于一个普通的魔法师”",
    "SetBonus": "",
    "ModifyTooltips": []
  },
  {
    "TypeName": "MagneticMetal",
    "Namespace": "AFKPETS.Items.Minions",
    "Name": "奇异金属",
    "ToolTip": "'看起来磁性很强'",
    "SetBonus": "",
    "ModifyTooltips": []
  },
  {
    "TypeName": "MamizouFutatsuiwaDoll",
    "Namespace": "AFKPETS.Items.Minions",
    "Name": "二岩猯藏玩偶",
    "Tooltip": "“看起来好可爱。”",
    "SetBonus": "",
    "ModifyTooltips": []
  },
  {
    "TypeName": "Masterball",
    "Namespace": "AFKPETS.Items.Minions",
    "Name": "大师球 (#382) ",
    "Tooltip": "“感觉某个传奇的神奇宝贝在这里面”",
    "SetBonus": "",
    "ModifyTooltips": []
  },
  {
    "TypeName": "Masterball2",
    "Namespace": "AFKPETS.Items.Minions",
    "Name": "大师球 (#251) ",
    "Tooltip": "“光是握着它就让你感到兴奋”",
    "SetBonus": "",
    "ModifyTooltips": []
  },
  {
    "TypeName": "Masterball3",
    "Namespace": "AFKPETS.Items.Minions",
    "Name": "大师球 (#385) ",
    "ToolTip": "“你感到有些异样”\n[c/ffff00:趣味模式专属]",
    "SetBonus": "",
    "ModifyTooltips": []
  },
  {
    "TypeName": "Masterball4",
    "Namespace": "AFKPETS.Items.Minions",
    "Name": "大师球 (#250) ",
    "ToolTip": "'奇怪的是它很暖和'",
    "SetBonus": "",
    "ModifyTooltips": []
  },
  {
    "TypeName": "Masterball5",
    "Namespace": "AFKPETS.Items.Minions",
    "Name": "大师球 (#150) ",
    "ToolTip": "'拿着它会让你觉得奇怪'",
    "SetBonus": "",
    "ModifyTooltips": []
  },
  {
    "TypeName": "Masterball6",
    "Namespace": "AFKPETS.Items.Minions",
    "Name": "大师球 (#648) ",
    "ToolTip": "'拿着它，你的耳边会响起微弱的旋律\n[c/ffff00:趣味模式专属]",
    "SetBonus": "",
    "ModifyTooltips": []
  },
  {
    "TypeName": "Masterball7",
    "Namespace": "AFKPETS.Items.Minions",
    "Name": "大师球 (#493) ",
    "ToolTip": "'即使握住它也会影响时间和空间的结构'",
    "SetBonus": "",
    "ModifyTooltips": []
  },
  {
    "TypeName": "Meat",
    "Namespace": "AFKPETS.Items.Minions",
    "Name": "熟肉",
    "Tooltip": "'它让你觉得很饿'",
    "SetBonus": "",
    "ModifyTooltips": []
  },
  {
    "TypeName": "MechaKey",
    "Namespace": "AFKPETS.Items.Minions",
    "Name": "机械钥匙",
    "Tooltip": "“它让我想起一个可怕的东西。”",
    "SetBonus": "",
    "ModifyTooltips": []
  },
  {
    "TypeName": "MechanicalLeg",
    "Namespace": "AFKPETS.Items.Minions",
    "Name": "机械腿",
    "ToolTip": "'看起来很不可思议'\n[c/ffff00:趣味模式专属]",
    "SetBonus": "",
    "ModifyTooltips": []
  },
  {
    "TypeName": "MechanicalStaff",
    "Namespace": "AFKPETS.Items.Minions",
    "Name": "机械法杖",
    "Tooltip": "召唤一个探测器为你作战",
    "SetBonus": "",
    "ModifyTooltips": []
  },
  {
    "TypeName": "MetroidCapsule",
    "Namespace": "AFKPETS.Items.Minions",
    "Name": "密特罗德细胞膜标本",
    "Tooltip": "'看上去很危险'",
    "SetBonus": "",
    "ModifyTooltips": []
  },
  {
    "TypeName": "MinamitsuMurasaDoll",
    "Namespace": "AFKPETS.Items.Minions",
    "Name": "村纱水蜜玩偶",
    "Tooltip": "'即使拿着它也会让你感觉更强'",
    "SetBonus": "",
    "ModifyTooltips": []
  },
  {
    "TypeName": "MindEye",
    "Namespace": "AFKPETS.Items.Minions",
    "Name": "???之眼",
    "Tooltip": "'它能读取你的心中所想'",
    "SetBonus": "",
    "ModifyTooltips": []
  },
  {
    "TypeName": "MiniScythe",
    "Namespace": "AFKPETS.Items.Minions",
    "Name": "小镰刀",
    "ToolTip": "'看上去很危险'\n[c/ffff00:趣味模式专属]",
    "SetBonus": "",
    "ModifyTooltips": []
  },
  {
    "TypeName": "MisaoHands",
    "Namespace": "AFKPETS.Items.Minions",
    "Name": "???之手",
    "ToolTip": "'虽然它们很冷,但你感觉到有某些东西已经被复仇之焰吞没了'",
    "SetBonus": "",
    "ModifyTooltips": []
  },
  {
    "TypeName": "MonsterAxe",
    "Namespace": "AFKPETS.Items.Minions",
    "Name": "锋利的斧头",
    "Tooltip": "'它看起来已经准备好战斗了'",
    "SetBonus": "",
    "ModifyTooltips": []
  },
  {
    "TypeName": "Murasame",
    "Namespace": "AFKPETS.Items.Minions",
    "Name": "妖刀村雨",
    "ToolTip": "'轻轻一挥即可灭杀月球领主'",
    "SetBonus": "",
    "ModifyTooltips": []
  },
  {
    "TypeName": "Mushroom",
    "Namespace": "AFKPETS.Items.Minions",
    "Name": "特殊蘑菇",
    "Tooltip": "“吸引某人。”",
    "SetBonus": "",
    "ModifyTooltips": []
  },
  {
    "TypeName": "MushyEgg",
    "Namespace": "AFKPETS.Items.Minions",
    "Name": "虫卵",
    "Tooltip": "'周围有蘑菇孢子'",
    "SetBonus": "",
    "ModifyTooltips": []
  },
  {
    "TypeName": "MusicCd",
    "Namespace": "AFKPETS.Items.Minions",
    "Name": "音乐CD",
    "Tooltip": "“里面有很多音乐”",
    "SetBonus": "",
    "ModifyTooltips": []
  },
  {
    "TypeName": "Myrtenaster",
    "Namespace": "AFKPETS.Items.Minions",
    "Name": "柳叶白菀",
    "Tooltip": "'它属于Weiss'",
    "SetBonus": "",
    "ModifyTooltips": []
  },
  {
    "TypeName": "NecklaceofKindness",
    "Namespace": "AFKPETS.Items.Minions",
    "Name": "鲜花项链",
    "Tooltip": "“曾经属于一个友善的灵魂”\n“即便只是握着它也让你想起儿时的梦想，脸上浮现出笑容”",
    "SetBonus": "",
    "ModifyTooltips": []
  },
  {
    "TypeName": "NightmareBall",
    "Namespace": "AFKPETS.Items.Minions",
    "Name": "噩梦球",
    "ToolTip": "'也许你应该打电话给Kirby'",
    "SetBonus": "",
    "ModifyTooltips": []
  },
  {
    "TypeName": "OldGlasses",
    "Namespace": "AFKPETS.Items.Minions",
    "Name": "古董眼镜",
    "ToolTip": "'某些人可能需要这个'\n[c/ffff00:趣味模式专属]",
    "SetBonus": "",
    "ModifyTooltips": []
  },
  {
    "TypeName": "OldSword",
    "Namespace": "AFKPETS.Items.Minions",
    "Name": "古董剑",
    "ToolTip": "'它可能看起来很旧，但仍然可以刺出最后一击'\n[c/ffff00:趣味模式专属]",
    "SetBonus": "",
    "ModifyTooltips": []
  },
  {
    "TypeName": "OldWizardHat",
    "Namespace": "AFKPETS.Items.Minions",
    "Name": "古老法师帽",
    "Tooltip": "“我想要戴上它”",
    "SetBonus": "",
    "ModifyTooltips": []
  },
  {
    "TypeName": "OmegaAmblem",
    "Namespace": "AFKPETS.Items.Minions",
    "Name": "欧米茄符文",
    "Tooltip": "“你开始被复仇所埋没”",
    "SetBonus": "",
    "ModifyTooltips": []
  },
  {
    "TypeName": "OrangeInkling",
    "Namespace": "AFKPETS.Items.Minions",
    "Name": "橙色鱿鱼",
    "Tooltip": "'它仔细地看着你.'",
    "SetBonus": "",
    "ModifyTooltips": []
  },
  {
    "TypeName": "OtherworldlyAdventurersBag",
    "Namespace": "AFKPETS.Items.Minions",
    "Name": "异世界冒险者包",
    "ToolTip": "'也许你应该把它交给认识它的人'",
    "SetBonus": "",
    "ModifyTooltips": []
  },
  {
    "TypeName": "OtherworldlyAmulet",
    "Namespace": "AFKPETS.Items.Minions",
    "Name": "异界护身符",
    "ToolTip": "'对某人来说可能很重要'",
    "SetBonus": "",
    "ModifyTooltips": []
  },
  {
    "TypeName": "OtherworldlyBow",
    "Namespace": "AFKPETS.Items.Minions",
    "Name": "异界长弓",
    "Tooltip": "'也许你应该把它给它的主人'",
    "SetBonus": "",
    "ModifyTooltips": []
  },
  {
    "TypeName": "OtherworldlyEmblem",
    "Namespace": "AFKPETS.Items.Minions",
    "Name": "异界徽章",
    "Tooltip": "你觉得你拿着它，但看不见它他\n他独自战斗，但他能轻易地摧毁军队.",
    "SetBonus": "",
    "ModifyTooltips": []
  },
  {
    "TypeName": "OtherworldlyHat",
    "Namespace": "AFKPETS.Items.Minions",
    "Name": "异界猫崽子",
    "ToolTip": "'他从哪找到这个的?'",
    "SetBonus": "",
    "ModifyTooltips": []
  },
  {
    "TypeName": "OtherworldlySword",
    "Namespace": "AFKPETS.Items.Minions",
    "Name": "异界宝剑",
    "ToolTip": "'它可能属于一个强者'\n[c/ffff00:趣味模式专属]",
    "SetBonus": "",
    "ModifyTooltips": []
  },
  {
    "TypeName": "OverfrozenCrystal",
    "Namespace": "AFKPETS.Items.Minions",
    "Name": "[c/82b4ef:过冻结晶]",
    "Tooltip": "[c/82b4ef:“结晶的温度近乎0开尔文”]",
    "SetBonus": "",
    "ModifyTooltips": []
  },
  {
    "TypeName": "OwlDoll",
    "Namespace": "AFKPETS.Items.Minions",
    "Name": "奇怪的猫头鹰布偶",
    "Tooltip": "“老怪猎人商人从哪里找到这个的？”",
    "SetBonus": "",
    "ModifyTooltips": []
  },
  {
    "TypeName": "PacDot",
    "Namespace": "AFKPETS.Items.Minions",
    "Name": "吃豆人点数",
    "Tooltip": "'看起来像像素，但很好吃'",
    "SetBonus": "",
    "ModifyTooltips": []
  },
  {
    "TypeName": "Pie",
    "Namespace": "AFKPETS.Items.Minions",
    "Name": "肉桂派",
    "Tooltip": "“看着不错。”",
    "SetBonus": "",
    "ModifyTooltips": []
  },
  {
    "TypeName": "PinkInkling",
    "Namespace": "AFKPETS.Items.Minions",
    "Name": "粉红鱿鱼",
    "Tooltip": "'他仔细地看着你.'",
    "SetBonus": "",
    "ModifyTooltips": []
  },
  {
    "TypeName": "PirateBag",
    "Namespace": "AFKPETS.Items.Minions",
    "Name": "海盗战利品包",
    "Tooltip": "也许这会让他们为你而战.",
    "SetBonus": "",
    "ModifyTooltips": []
  },
  {
    "TypeName": "PizzaSlice",
    "Namespace": "AFKPETS.Items.Minions",
    "Name": "披萨片",
    "ToolTip": "'味道都很好'",
    "SetBonus": "",
    "ModifyTooltips": []
  },
  {
    "TypeName": "PlasticFigure",
    "Namespace": "AFKPETS.Items.Minions",
    "Name": "塑料手办",
    "ToolTip": "“应该十分稀有”\n[c/ffff00:趣味模式专属]",
    "SetBonus": "",
    "ModifyTooltips": []
  },
  {
    "TypeName": "Pokeball",
    "Namespace": "AFKPETS.Items.Minions",
    "Name": "精灵球 (#258) ",
    "Tooltip": "“看起来里面装着芳缘地区初始神奇宝贝之一。”",
    "SetBonus": "",
    "ModifyTooltips": []
  },
  {
    "TypeName": "Pokeball2",
    "Namespace": "AFKPETS.Items.Minions",
    "Name": "精灵球 (#303) ",
    "Tooltip": "“看起来里面有一个洞穴神奇宝贝。”",
    "SetBonus": "",
    "ModifyTooltips": []
  },
  {
    "TypeName": "Pokeball3",
    "Namespace": "AFKPETS.Items.Minions",
    "Name": "精灵球 (#281) ",
    "Tooltip": "“看起来一个城区神奇宝贝在这里面。”",
    "SetBonus": "",
    "ModifyTooltips": []
  },
  {
    "TypeName": "Pokeball4",
    "Namespace": "AFKPETS.Items.Minions",
    "Name": "精灵球 (#92) ",
    "Tooltip": "“你感觉一个暗系神奇宝贝在这里面”",
    "SetBonus": "",
    "ModifyTooltips": []
  },
  {
    "TypeName": "Pokeball5",
    "Namespace": "AFKPETS.Items.Minions",
    "Name": "精灵球 (#83) ",
    "Tooltip": "“这个精灵球闻着像洋葱”",
    "SetBonus": "",
    "ModifyTooltips": []
  },
  {
    "TypeName": "Pokeball6",
    "Namespace": "AFKPETS.Items.Minions",
    "Name": "精灵球 (#225) ",
    "Tooltip": "'你觉得你可能从这个神奇宝贝那里得到礼物'",
    "SetBonus": "",
    "ModifyTooltips": []
  },
  {
    "TypeName": "Pokeball7",
    "Namespace": "AFKPETS.Items.Minions",
    "Name": "精灵球 (#172) ",
    "ToolTip": "'有些火花从精灵球里冒出来'\n[c/ffff00:趣味模式专属]",
    "SetBonus": "",
    "ModifyTooltips": []
  },
  {
    "TypeName": "Pokemon10",
    "Namespace": "AFKPETS.Items.Minions",
    "Name": "精灵球 (#321) ",
    "ToolTip": "奇怪的是它浸透了水.",
    "SetBonus": "",
    "ModifyTooltips": []
  },
  {
    "TypeName": "Pokemon11",
    "Namespace": "AFKPETS.Items.Minions",
    "Name": "精灵球 (#143) ",
    "ToolTip": "你听到打鼾声了.",
    "SetBonus": "",
    "ModifyTooltips": []
  },
  {
    "TypeName": "Pokemon12",
    "Namespace": "AFKPETS.Items.Minions",
    "Name": "精灵球 (#235) ",
    "ToolTip": "拿着它会让你感觉非常正常.",
    "SetBonus": "",
    "ModifyTooltips": []
  },
  {
    "TypeName": "Pokemon13",
    "Namespace": "AFKPETS.Items.Minions",
    "Name": "精灵球 (#351) ",
    "ToolTip": "你觉得它会受到天气的影响.",
    "SetBonus": "",
    "ModifyTooltips": []
  },
  {
    "TypeName": "Pokemon14",
    "Namespace": "AFKPETS.Items.Minions",
    "Name": "精灵球 (#371) ",
    "ToolTip": "你觉得它有点重\n[c/ffff00:趣味模式专属]",
    "SetBonus": "",
    "ModifyTooltips": []
  },
  {
    "TypeName": "Pokemon15",
    "Namespace": "AFKPETS.Items.Minions",
    "Name": "精灵球 (#66) ",
    "ToolTip": "即使拿着它也会让你感觉更强.\n[c/ffff00:趣味模式专属]",
    "SetBonus": "",
    "ModifyTooltips": []
  },
  {
    "TypeName": "Pokemon16",
    "Namespace": "AFKPETS.Items.Minions",
    "Name": "精灵球 (#491) ",
    "ToolTip": "你觉得这个精灵球里有些特别的东西.",
    "SetBonus": "",
    "ModifyTooltips": []
  },
  {
    "TypeName": "Pokemon17",
    "Namespace": "AFKPETS.Items.Minions",
    "Name": "精灵球 (#200) ",
    "ToolTip": "拿着它会让你觉得周围的环境变得不同\n[c/ffff00:趣味模式专属]",
    "SetBonus": "",
    "ModifyTooltips": []
  },
  {
    "TypeName": "Pokemon18",
    "Namespace": "AFKPETS.Items.Minions",
    "Name": "精灵球 (#428) ",
    "ToolTip": "即使拿着也能让你感觉友好\n[c/ffff00:趣味模式专属]",
    "SetBonus": "",
    "ModifyTooltips": []
  },
  {
    "TypeName": "Pokemon19",
    "Namespace": "AFKPETS.Items.Minions",
    "Name": "精灵球 (#461) ",
    "ToolTip": "你感觉一个暗系神奇宝贝在这里面\n[c/ffff00:趣味模式专属]",
    "SetBonus": "",
    "ModifyTooltips": []
  },
  {
    "TypeName": "Pokemon20",
    "Namespace": "AFKPETS.Items.Minions",
    "Name": "精灵球 (#162) ",
    "ToolTip": "你觉得这个精灵球里有一个可爱的神奇宝贝\n[c/ffff00:趣味模式专属]",
    "SetBonus": "",
    "ModifyTooltips": []
  },
  {
    "TypeName": "Pokemon8",
    "Namespace": "AFKPETS.Items.Minions",
    "Name": "精灵球 (#778) ",
    "ToolTip": "只是拿着它也让你仇恨满溢'\n[c/ffff00:趣味模式专属]",
    "SetBonus": "",
    "ModifyTooltips": []
  },
  {
    "TypeName": "Pokemon9",
    "Namespace": "AFKPETS.Items.Minions",
    "Name": "精灵球 (#359) ",
    "ToolTip": "你感觉一个暗系神奇宝贝在这里面.'\n[c/ffff00:趣味模式专属]",
    "SetBonus": "",
    "ModifyTooltips": []
  },
  {
    "TypeName": "PortableMysteriousTablet",
    "Namespace": "AFKPETS.Items.Minions",
    "Name": "便携式拜月教图腾",
    "Tooltip": "'它看起来很脆弱'",
    "SetBonus": "",
    "ModifyTooltips": []
  },
  {
    "TypeName": "Powercell",
    "Namespace": "AFKPETS.Items.Minions",
    "Name": "古老能量稳定核心",
    "Tooltip": "“某一时间这个核心用于开化文明”",
    "SetBonus": "",
    "ModifyTooltips": []
  },
  {
    "TypeName": "PurpleEtherianMana",
    "Namespace": "AFKPETS.Items.Minions",
    "Name": "紫色天国魔力",
    "Tooltip": "“某人想要拿走它。”",
    "SetBonus": "",
    "ModifyTooltips": []
  },
  {
    "TypeName": "RanDoll",
    "Namespace": "AFKPETS.Items.Minions",
    "Name": "八云蓝玩偶",
    "ToolTip": "'甚至她的玩偶也在牵挂着她的主人.'",
    "SetBonus": "",
    "ModifyTooltips": []
  },
  {
    "TypeName": "RedEye",
    "Namespace": "AFKPETS.Items.Minions",
    "Name": "猩红之眼",
    "Tooltip": "'它可以稳定地下世界的火焰'",
    "SetBonus": "",
    "ModifyTooltips": []
  },
  {
    "TypeName": "RedFeather",
    "Namespace": "AFKPETS.Items.Minions",
    "Name": "红色羽毛",
    "Tooltip": "“这羽毛是哪里来的？”",
    "SetBonus": "",
    "ModifyTooltips": []
  },
  {
    "TypeName": "RedKey",
    "Namespace": "AFKPETS.Items.Minions",
    "Name": "红钥匙",
    "Tooltip": "召唤Phanto为你作战",
    "SetBonus": "",
    "ModifyTooltips": []
  },
  {
    "TypeName": "RedPaper",
    "Namespace": "AFKPETS.Items.Minions",
    "Name": "红符文",
    "Tooltip": "“某人衣服的一部分”",
    "SetBonus": "",
    "ModifyTooltips": []
  },
  {
    "TypeName": "RedRose",
    "Namespace": "AFKPETS.Items.Minions",
    "Name": "红玫瑰",
    "ToolTip": "'拿着它会让你觉得它属于某个人'",
    "SetBonus": "",
    "ModifyTooltips": []
  },
  {
    "TypeName": "ReisenUdongeinInabaDoll",
    "Namespace": "AFKPETS.Items.Minions",
    "Name": "铃仙·优昙华院·因幡玩偶",
    "Tooltip": "'你不应该直视这个玩偶的眼睛.'",
    "SetBonus": "",
    "ModifyTooltips": []
  },
  {
    "TypeName": "ReverseBladeSword",
    "Namespace": "AFKPETS.Items.Minions",
    "Name": "反刃剑",
    "Tooltip": "'它曾经是由伟大的铁匠锻造的'",
    "SetBonus": "",
    "ModifyTooltips": []
  },
  {
    "TypeName": "RidersEyeCover",
    "Namespace": "AFKPETS.Items.Minions",
    "Name": "眼罩",
    "ToolTip": "'可能属于某位骑士'\n[c/ffff00:趣味模式专属]",
    "SetBonus": "",
    "ModifyTooltips": []
  },
  {
    "TypeName": "RosePetals",
    "Namespace": "AFKPETS.Items.Minions",
    "Name": "玫瑰花瓣",
    "Tooltip": "'它们曾经从一朵美丽的花上落下'",
    "SetBonus": "",
    "ModifyTooltips": []
  },
  {
    "TypeName": "RottenBass",
    "Namespace": "AFKPETS.Items.Minions",
    "Name": "腐坏鲈鱼",
    "Tooltip": "“我能用它干嘛？”",
    "SetBonus": "",
    "ModifyTooltips": []
  },
  {
    "TypeName": "RuukotoDoll",
    "Namespace": "AFKPETS.Items.Minions",
    "Name": "留琴玩偶",
    "Tooltip": "“它虽然是机械但是很可爱”",
    "SetBonus": "",
    "ModifyTooltips": []
  },
  {
    "TypeName": "SakuyaWatch",
    "Namespace": "AFKPETS.Items.Minions",
    "Name": "操控时间怀表",
    "Tooltip": "“这表属于某人”",
    "SetBonus": "",
    "ModifyTooltips": []
  },
  {
    "TypeName": "SanaeKochiyaDoll",
    "Namespace": "AFKPETS.Items.Minions",
    "Name": "东风谷早苗玩偶",
    "Tooltip": "“它看起来很可爱但是也很强大”",
    "SetBonus": "",
    "ModifyTooltips": []
  },
  {
    "TypeName": "ScarletOrb",
    "Namespace": "AFKPETS.Items.Minions",
    "Name": "猩红色的球",
    "Tooltip": "“让你感到怪异”",
    "SetBonus": "",
    "ModifyTooltips": []
  },
  {
    "TypeName": "Scroll",
    "Namespace": "AFKPETS.Items.Minions",
    "Name": "卷轴",
    "ToolTip": "'你不确定这是卷轴还是别的什么东西.'",
    "SetBonus": "",
    "ModifyTooltips": []
  },
  {
    "TypeName": "SeijaDoll",
    "Namespace": "AFKPETS.Items.Minions",
    "Name": "鬼人正邪玩偶",
    "Tooltip": "“为什么它是倒过来的？”",
    "SetBonus": "",
    "ModifyTooltips": []
  },
  {
    "TypeName": "SephirothDoll",
    "Namespace": "AFKPETS.Items.Minions",
    "Name": "萨菲罗斯玩偶",
    "ToolTip": "'看上去很可爱'",
    "SetBonus": "",
    "ModifyTooltips": []
  },
  {
    "TypeName": "SeveredHead",
    "Namespace": "AFKPETS.Items.Minions",
    "Name": "断头",
    "Tooltip": "“它在找它的身体”",
    "SetBonus": "",
    "ModifyTooltips": []
  },
  {
    "TypeName": "ShadowPrism",
    "Namespace": "AFKPETS.Items.Minions",
    "Name": "暗影棱镜",
    "Tooltip": "“一个古老的国王制作了它”",
    "SetBonus": "",
    "ModifyTooltips": []
  },
  {
    "TypeName": "ShanghaiDoll",
    "Namespace": "AFKPETS.Items.Minions",
    "Name": "上海玩偶",
    "Tooltip": "“它在寻找它的主人”",
    "SetBonus": "",
    "ModifyTooltips": []
  },
  {
    "TypeName": "ShatteredCrusaderSoul",
    "Namespace": "AFKPETS.Items.Minions",
    "Name": "破碎的圣教军之魂",
    "ToolTip": "奇怪的是，即使拿着它也会让你觉得被虐待'",
    "SetBonus": "",
    "ModifyTooltips": []
  },
  {
    "TypeName": "ShatteredHead",
    "Namespace": "AFKPETS.Items.Minions",
    "Name": "被切下的头",
    "ToolTip": "'它正在寻找她的身子'\n[c/ffff00:趣味模式专属]",
    "SetBonus": "",
    "ModifyTooltips": []
  },
  {
    "TypeName": "SheerHeart",
    "Namespace": "AFKPETS.Items.Minions",
    "Name": "枯萎穿心攻击",
    "ToolTip": "'你觉得它瞄准了什么东西'\n[c/ffff00:趣味模式专属]",
    "SetBonus": "",
    "ModifyTooltips": []
  },
  {
    "TypeName": "ShinkiDoll",
    "Namespace": "AFKPETS.Items.Minions",
    "Name": "神绮玩偶",
    "Tooltip": "'虽然看上去很可爱但是仍然很危险'",
    "SetBonus": "",
    "ModifyTooltips": []
  },
  {
    "TypeName": "ShinyBlackSlab",
    "Namespace": "AFKPETS.Items.Minions",
    "Name": "善良的黑手机",
    "ToolTip": "'召唤一个宠物安卓'",
    "SetBonus": "",
    "ModifyTooltips": []
  },
  {
    "TypeName": "Shovel",
    "Namespace": "AFKPETS.Items.Minions",
    "Name": "传奇铁锹",
    "ToolTip": "'它属于英雄'\n[c/ffff00:趣味模式专属]",
    "SetBonus": "",
    "ModifyTooltips": []
  },
  {
    "TypeName": "ShyGuyMask",
    "Namespace": "AFKPETS.Items.Minions",
    "Name": "害羞男孩面具",
    "Tooltip": "“奇怪又可爱”",
    "SetBonus": "",
    "ModifyTooltips": []
  },
  {
    "TypeName": "SigilofCirno",
    "Namespace": "AFKPETS.Items.Minions",
    "Name": "[c/82b4ef:琪露诺印记⑨]",
    "Tooltip": "[c/82b4ef:“它属于所有笨蛋的最强者”]\n[c/82b4ef:“汉化者喜欢琪露诺，送给他一只吧？”]",
    "SetBonus": "",
    "ModifyTooltips": []
  },
  {
    "TypeName": "SkullwithWire",
    "Namespace": "AFKPETS.Items.Minions",
    "Name": "古老头颅",
    "Tooltip": "“看上去危险又古老”",
    "SetBonus": "",
    "ModifyTooltips": []
  },
  {
    "TypeName": "SlimeWatcher",
    "Namespace": "AFKPETS.Items.Minions",
    "Name": "史莱姆之视",
    "ToolTip": "'仍在注视着你'\n[c/ffff00:趣味模式专属]",
    "SetBonus": "",
    "ModifyTooltips": []
  },
  {
    "TypeName": "SlimyEnergyCore",
    "Namespace": "AFKPETS.Items.Minions",
    "Name": "黏糊增能器",
    "ToolTip": "'还残余了些许能量'",
    "SetBonus": "",
    "ModifyTooltips": []
  },
  {
    "TypeName": "SlimyRemains",
    "Namespace": "AFKPETS.Items.Minions",
    "Name": "史莱姆残留物",
    "Tooltip": "召唤一只小型史莱姆国王为你作战",
    "SetBonus": "",
    "ModifyTooltips": []
  },
  {
    "TypeName": "SniperSkull",
    "Namespace": "AFKPETS.Items.Minions",
    "Name": "狙击者头骨",
    "Tooltip": "它会让他们害怕并让他们为你而战",
    "SetBonus": "",
    "ModifyTooltips": []
  },
  {
    "TypeName": "SnowStaff",
    "Namespace": "AFKPETS.Items.Minions",
    "Name": "雪片法杖",
    "Tooltip": "它会召唤雪片为你作战战",
    "SetBonus": "",
    "ModifyTooltips": []
  },
  {
    "TypeName": "SpadeRune",
    "Namespace": "AFKPETS.Items.Minions",
    "Name": "黑桃符文",
    "Tooltip": "'闻起来糟透了'",
    "SetBonus": "",
    "ModifyTooltips": []
  },
  {
    "TypeName": "SpookySpiritBottle",
    "Namespace": "AFKPETS.Items.Minions",
    "Name": "瓶中幽魂",
    "Tooltip": "“看上去队他们钛恐怖了，，，”",
    "SetBonus": "",
    "ModifyTooltips": []
  },
  {
    "TypeName": "StableCore",
    "Namespace": "AFKPETS.Items.Minions",
    "Name": "稳定核心",
    "Tooltip": "“某个东西的钥匙。”",
    "SetBonus": "",
    "ModifyTooltips": []
  },
  {
    "TypeName": "StackofFiveApples",
    "Namespace": "AFKPETS.Items.Minions",
    "Name": "五苹果堆",
    "Tooltip": "“某人的单位长度”",
    "SetBonus": "",
    "ModifyTooltips": []
  },
  {
    "TypeName": "StrangeLookingEgg",
    "Namespace": "AFKPETS.Items.Minions",
    "Name": "便携式伞效果蛋",
    "Tooltip": "“它属于附窗子”",
    "SetBonus": "",
    "ModifyTooltips": []
  },
  {
    "TypeName": "StrangeLookingEgg2",
    "Namespace": "AFKPETS.Items.Minions",
    "Name": "便携式雪女效果蛋",
    "Tooltip": "“它属于附窗子”",
    "SetBonus": "",
    "ModifyTooltips": []
  },
  {
    "TypeName": "StrangeLookingEgg3",
    "Namespace": "AFKPETS.Items.Minions",
    "Name": "便携式恶魔效果蛋",
    "Tooltip": "“它属于附窗子”",
    "SetBonus": "",
    "ModifyTooltips": []
  },
  {
    "TypeName": "StrangeLookingEgg4",
    "Namespace": "AFKPETS.Items.Minions",
    "Name": "便携式巫师效果蛋",
    "Tooltip": "“它属于附窗子”",
    "SetBonus": "",
    "ModifyTooltips": []
  },
  {
    "TypeName": "StrangeLookingEgg5",
    "Namespace": "AFKPETS.Items.Minions",
    "Name": "便携式刀效果蛋",
    "Tooltip": "“它属于附窗子”",
    "SetBonus": "",
    "ModifyTooltips": []
  },
  {
    "TypeName": "StrangeMonitor",
    "Namespace": "AFKPETS.Items.Minions",
    "Name": "奇怪的显示器",
    "Tooltip": "“这东西有wifi吗？”",
    "SetBonus": "",
    "ModifyTooltips": []
  },
  {
    "TypeName": "Streetsign",
    "Namespace": "AFKPETS.Items.Minions",
    "Name": "路牌",
    "Tooltip": "“某人最爱的武器”\n即使汉克（野兽）也被这东西杀死了",
    "SetBonus": "",
    "ModifyTooltips": []
  },
  {
    "TypeName": "SumirekoUsamiDoll",
    "Namespace": "AFKPETS.Items.Minions",
    "Name": "宇佐见堇子玩偶",
    "Tooltip": "“你感到了什么...”",
    "SetBonus": "",
    "ModifyTooltips": []
  },
  {
    "TypeName": "SunGlasses",
    "Namespace": "AFKPETS.Items.Minions",
    "Name": "太阳镜",
    "Tooltip": "“产地：地牢”",
    "SetBonus": "",
    "ModifyTooltips": []
  },
  {
    "TypeName": "SuspiciosLookingEgg",
    "Namespace": "AFKPETS.Items.Minions",
    "Name": "怪异的蛋",
    "Tooltip": "“我希望蛾子不会对我生气”",
    "SetBonus": "",
    "ModifyTooltips": []
  },
  {
    "TypeName": "SuspiciousFlyingRock",
    "Namespace": "AFKPETS.Items.Minions",
    "Name": "怪异的飞石",
    "ToolTip": "'似乎有人在操纵它'\n[c/ffff00:趣味模式专属]",
    "SetBonus": "",
    "ModifyTooltips": []
  },
  {
    "TypeName": "SuspiciousLookingBag",
    "Namespace": "AFKPETS.Items.Minions",
    "Name": "怪异的包",
    "ToolTip": "'你想知道里面是什么.'",
    "SetBonus": "",
    "ModifyTooltips": []
  },
  {
    "TypeName": "SuspiciousLookingBiwa",
    "Namespace": "AFKPETS.Items.Minions",
    "Name": "怪异的琵琶",
    "Tooltip": "“它属于某人”",
    "SetBonus": "",
    "ModifyTooltips": []
  },
  {
    "TypeName": "SuspiciousLookingBomb",
    "Namespace": "AFKPETS.Items.Minions",
    "Name": "怪异的炸弹",
    "ToolTip": "我希望它不会爆炸\n[c/ffff00:趣味模式专属]",
    "SetBonus": "",
    "ModifyTooltips": []
  },
  {
    "TypeName": "SuspiciousLookingBucket",
    "Namespace": "AFKPETS.Items.Minions",
    "Name": "怪异的桶",
    "Tooltip": "'有人在里面'",
    "SetBonus": "",
    "ModifyTooltips": []
  },
  {
    "TypeName": "SuspiciousLookingChatteryTeeth",
    "Namespace": "AFKPETS.Items.Minions",
    "Name": "在打颤的可疑假牙",
    "ToolTip": "'你希望它不会咬你'",
    "SetBonus": "",
    "ModifyTooltips": []
  },
  {
    "TypeName": "SuspiciousLookingCookie",
    "Namespace": "AFKPETS.Items.Minions",
    "Name": "怪异的曲奇",
    "Tooltip": "“它好像想要杀了我”",
    "SetBonus": "",
    "ModifyTooltips": []
  },
  {
    "TypeName": "SuspiciousLookingDrumStick",
    "Namespace": "AFKPETS.Items.Minions",
    "Name": "怪异的鼓棒",
    "Tooltip": "“它属于某人”",
    "SetBonus": "",
    "ModifyTooltips": []
  },
  {
    "TypeName": "SuspiciousLookingEyeball",
    "Namespace": "AFKPETS.Items.Minions",
    "Name": "怪异的眼球",
    "Tooltip": "“它依然盯着你。”",
    "SetBonus": "",
    "ModifyTooltips": []
  },
  {
    "TypeName": "SuspiciousLookingGem",
    "Namespace": "AFKPETS.Items.Minions",
    "Name": "怪异的凝胶",
    "Tooltip": "“可能来自于太空。”\n“蜜蜂皇后是怎么找到它的？”",
    "SetBonus": "",
    "ModifyTooltips": []
  },
  {
    "TypeName": "SuspiciousLookingKeyboard",
    "Namespace": "AFKPETS.Items.Minions",
    "Name": "怪异的键盘",
    "Tooltip": "“好像还有足够的电来用”",
    "SetBonus": "",
    "ModifyTooltips": []
  },
  {
    "TypeName": "SuspiciousLookingOrb",
    "Namespace": "AFKPETS.Items.Minions",
    "Name": "怪异的光球",
    "ToolTip": "“好像它是活的”\n[c/ffff00:趣味模式专属]",
    "SetBonus": "",
    "ModifyTooltips": []
  },
  {
    "TypeName": "SuspiciousLookingPlate",
    "Namespace": "AFKPETS.Items.Minions",
    "Name": "怪异的碗",
    "Tooltip": "'你觉得你不应该喝这个'",
    "SetBonus": "",
    "ModifyTooltips": []
  },
  {
    "TypeName": "SuspiciousLookingRoadRoller",
    "Namespace": "AFKPETS.Items.Minions",
    "Name": "可疑的压路机",
    "Tooltip": "'他从哪找来这个的?'",
    "SetBonus": "",
    "ModifyTooltips": []
  },
  {
    "TypeName": "SuspiciousLookingScythe",
    "Namespace": "AFKPETS.Items.Minions",
    "Name": "怪异的镰刀",
    "Tooltip": "'最好把它给它的主人'",
    "SetBonus": "",
    "ModifyTooltips": []
  },
  {
    "TypeName": "SuspiciousLookingShovel",
    "Namespace": "AFKPETS.Items.Minions",
    "Name": "怪异的铲子",
    "ToolTip": "'你觉得你应该把这个给他'",
    "SetBonus": "",
    "ModifyTooltips": []
  },
  {
    "TypeName": "SuspiciousLookingSnowpile",
    "Namespace": "AFKPETS.Items.Minions",
    "Name": "怪异的雪堆",
    "Tooltip": "“雪有尾巴吗？”",
    "SetBonus": "",
    "ModifyTooltips": []
  },
  {
    "TypeName": "SuspiciousLookingTrumpet",
    "Namespace": "AFKPETS.Items.Minions",
    "Name": "怪异的小号",
    "Tooltip": "“嘟嘟”",
    "SetBonus": "",
    "ModifyTooltips": []
  },
  {
    "TypeName": "SuspiciousLookingViolin",
    "Namespace": "AFKPETS.Items.Minions",
    "Name": "怪异的小提琴",
    "Tooltip": "“很美丽”",
    "SetBonus": "",
    "ModifyTooltips": []
  },
  {
    "TypeName": "SuwakoDoll",
    "Namespace": "AFKPETS.Items.Minions",
    "Name": "洩矢诹访子玩偶",
    "ToolTip": "“这是从哪来的？”",
    "SetBonus": "",
    "ModifyTooltips": []
  },
  {
    "TypeName": "Switch",
    "Namespace": "AFKPETS.Items.Minions",
    "Name": "灯光开关",
    "Tooltip": "'???'",
    "SetBonus": "",
    "ModifyTooltips": []
  },
  {
    "TypeName": "Tank",
    "Namespace": "AFKPETS.Items.Minions",
    "Name": "坦克",
    "Tooltip": "“某人可能会开”",
    "SetBonus": "",
    "ModifyTooltips": []
  },
  {
    "TypeName": "TearBottle",
    "Namespace": "AFKPETS.Items.Minions",
    "Name": "催泪弹",
    "Tooltip": "可能会让某人感到快乐并为你而战.",
    "SetBonus": "",
    "ModifyTooltips": []
  },
  {
    "TypeName": "TemFlake",
    "Namespace": "AFKPETS.Items.Minions",
    "Name": "提米脆片",
    "Tooltip": "“看上去好极了。”",
    "SetBonus": "",
    "ModifyTooltips": []
  },
  {
    "TypeName": "tensecondtimer",
    "Namespace": "AFKPETS.Items.Minions",
    "Name": "十秒计时器",
    "Tooltip": "“感觉有些奇怪而且很大”",
    "SetBonus": "",
    "ModifyTooltips": []
  },
  {
    "TypeName": "TewiInabaDoll",
    "Namespace": "AFKPETS.Items.Minions",
    "Name": "因幡帝玩偶",
    "ToolTip": "“古老但可爱”",
    "SetBonus": "",
    "ModifyTooltips": []
  },
  {
    "TypeName": "TheBrain",
    "Namespace": "AFKPETS.Items.Minions",
    "Name": "生物脑机器人",
    "ToolTip": "'看起来它还活着'",
    "SetBonus": "",
    "ModifyTooltips": []
  },
  {
    "TypeName": "TifaLockheartDoll",
    "Namespace": "AFKPETS.Items.Minions",
    "Name": "蒂法锁心玩偶",
    "ToolTip": "'看上去很可爱'",
    "SetBonus": "",
    "ModifyTooltips": []
  },
  {
    "TypeName": "TimeShard",
    "Namespace": "AFKPETS.Items.Minions",
    "Name": "时间碎片",
    "ToolTip": "'也许你可以用它升级一些东西'",
    "SetBonus": "",
    "ModifyTooltips": []
  },
  {
    "TypeName": "TinyBag",
    "Namespace": "AFKPETS.Items.Minions",
    "Name": "小包",
    "ToolTip": "'它可能属于另一个人'",
    "SetBonus": "",
    "ModifyTooltips": []
  },
  {
    "TypeName": "TinyBluePlane",
    "Namespace": "AFKPETS.Items.Minions",
    "Name": "蓝色小飞机",
    "ToolTip": "'他们将为樱花帝国而战'",
    "SetBonus": "",
    "ModifyTooltips": []
  },
  {
    "TypeName": "TinyPlanets",
    "Namespace": "AFKPETS.Items.Minions",
    "Name": "微型三行星模型",
    "Tooltip": "'看上去很可爱'",
    "SetBonus": "",
    "ModifyTooltips": []
  },
  {
    "TypeName": "TinyPowerCore",
    "Namespace": "AFKPETS.Items.Minions",
    "Name": "小型能量电池",
    "ToolTip": "'它看起来很小，但这已经足够了'",
    "SetBonus": "",
    "ModifyTooltips": []
  },
  {
    "TypeName": "TinyRedPlane",
    "Namespace": "AFKPETS.Items.Minions",
    "Name": "红色小飞机",
    "ToolTip": "'他们将为樱花帝国而战'",
    "SetBonus": "",
    "ModifyTooltips": []
  },
  {
    "TypeName": "TinyUkulele",
    "Namespace": "AFKPETS.Items.Minions",
    "Name": "小小的四弦琴",
    "ToolTip": "'看起来既可爱又充满活力'\n[c/ffff00:趣味模式专属]",
    "SetBonus": "",
    "ModifyTooltips": []
  },
  {
    "TypeName": "TotallyNormalBone",
    "Namespace": "AFKPETS.Items.Minions",
    "Name": "完全正常的骨头",
    "Tooltip": "“它看上去完全正常。为什么你会带着它？”",
    "SetBonus": "",
    "ModifyTooltips": []
  },
  {
    "TypeName": "ToyExcalibur",
    "Namespace": "AFKPETS.Items.Minions",
    "Name": "玩具EX咖喱棒",
    "ToolTip": "'它看起来像玩具，但你仍然觉得有股强大的能量在内游荡.'",
    "SetBonus": "",
    "ModifyTooltips": []
  },
  {
    "TypeName": "Triangle",
    "Namespace": "AFKPETS.Items.Minions",
    "Name": "勇气三力",
    "Tooltip": "“或许我能找到另外两片”",
    "SetBonus": "",
    "ModifyTooltips": []
  },
  {
    "TypeName": "TurkeyFeather",
    "Namespace": "AFKPETS.Items.Minions",
    "Name": "火鸡羽毛",
    "ToolTip": "'召唤一只宠物火鸡'",
    "SetBonus": "",
    "ModifyTooltips": []
  },
  {
    "TypeName": "TurkorDrumStick",
    "Namespace": "AFKPETS.Items.Minions",
    "Name": "火鸡鸡腿",
    "ToolTip": "'我希望它不会攻击你'",
    "SetBonus": "",
    "ModifyTooltips": []
  },
  {
    "TypeName": "UboaDoll",
    "Namespace": "AFKPETS.Items.Minions",
    "Name": "Uboa玩偶",
    "Tooltip": "“感觉恐怖”",
    "SetBonus": "",
    "ModifyTooltips": []
  },
  {
    "TypeName": "UFO",
    "Namespace": "AFKPETS.Items.Minions",
    "Name": "UFO",
    "Tooltip": "“或许你就不应该碰它”",
    "SetBonus": "",
    "ModifyTooltips": []
  },
  {
    "TypeName": "Umbrella",
    "Namespace": "AFKPETS.Items.Minions",
    "Name": "粉色的伞",
    "Tooltip": "“它看起来属于某人”",
    "SetBonus": "",
    "ModifyTooltips": []
  },
  {
    "TypeName": "UndefinedFlyingScythe",
    "Namespace": "AFKPETS.Items.Minions",
    "Name": "恶魔飞刀",
    "Tooltip": "“让游戏开始吧！”",
    "SetBonus": "",
    "ModifyTooltips": []
  },
  {
    "TypeName": "UnlimitedMud",
    "Namespace": "AFKPETS.Items.Minions",
    "Name": "无限淤泥桶",
    "Tooltip": "“为什么有人会做这个？”",
    "SetBonus": "",
    "ModifyTooltips": []
  },
  {
    "TypeName": "WaluigiHat",
    "Namespace": "AFKPETS.Items.Minions",
    "Name": "紫羽毛帽",
    "ToolTip": "'闻起来像是助攻奖杯'",
    "SetBonus": "",
    "ModifyTooltips": []
  },
  {
    "TypeName": "Wand",
    "Namespace": "AFKPETS.Items.Minions",
    "Name": "异世界法杖",
    "ToolTip": "“它曾经在月球被用过”\n[c/ffff00:趣味模式专属]",
    "SetBonus": "",
    "ModifyTooltips": []
  },
  {
    "TypeName": "WaterSpiritBottle",
    "Namespace": "AFKPETS.Items.Minions",
    "Name": "瓶中水精灵",
    "Tooltip": "召唤水精灵为你作战",
    "SetBonus": "",
    "ModifyTooltips": []
  },
  {
    "TypeName": "WhiteBook",
    "Namespace": "AFKPETS.Items.Minions",
    "Name": "白魔法之书",
    "Tooltip": "“里面写着很多治疗类法术”",
    "SetBonus": "",
    "ModifyTooltips": []
  },
  {
    "TypeName": "WhiteFeather",
    "Namespace": "AFKPETS.Items.Minions",
    "Name": "白色羽毛",
    "Tooltip": "“这羽毛是哪里来的？”",
    "SetBonus": "",
    "ModifyTooltips": []
  },
  {
    "TypeName": "YarnBall",
    "Namespace": "AFKPETS.Items.Minions",
    "Name": "红色毛线球",
    "Tooltip": "“它看起来很可爱。”",
    "SetBonus": "",
    "ModifyTooltips": []
  },
  {
    "TypeName": "YellowFlower",
    "Namespace": "AFKPETS.Items.Minions",
    "Name": "黄花",
    "Tooltip": "“它让你想起某人”",
    "SetBonus": "",
    "ModifyTooltips": []
  },
  {
    "TypeName": "YellowHair",
    "Namespace": "AFKPETS.Items.Minions",
    "Name": "黄发",
    "Tooltip": "'它仍在燃烧着'",
    "SetBonus": "",
    "ModifyTooltips": []
  },
  {
    "TypeName": "YellowRose",
    "Namespace": "AFKPETS.Items.Minions",
    "Name": "黄玫瑰",
    "ToolTip": "'拿着它会让你觉得它属于某个人'",
    "SetBonus": "",
    "ModifyTooltips": []
  },
  {
    "TypeName": "YugiohCard1",
    "Namespace": "AFKPETS.Items.Minions",
    "Name": "另一世界的召唤卡牌",
    "Tooltip": "我召唤他需要祭品吗？",
    "SetBonus": "",
    "ModifyTooltips": []
  },
  {
    "TypeName": "YugiohCard2",
    "Namespace": "AFKPETS.Items.Minions",
    "Name": "另一世界的召唤卡牌",
    "Tooltip": "“我召唤她还是要祭品吗？”",
    "SetBonus": "",
    "ModifyTooltips": []
  },
  {
    "TypeName": "YumeNikki",
    "Namespace": "AFKPETS.Items.Minions",
    "Name": "梦日记",
    "Tooltip": "“它是用日语写的。”",
    "SetBonus": "",
    "ModifyTooltips": []
  }
]