[
  {
    "TypeName": "JudgementSlime",
    "Namespace": "AFKPETS.NPCs.PoliticianSlime",
    "Method": "AI",
    "Contents": [
      "你想要见我们的首领，唔...",
      "你做不到的",
      "我知道我不是他，但是我是真实的他的镜像",
      "我被一个生物学家创造出来",
      "I was born from the dust of judgement",
      "不过这些就已经足够终结你了.",
      "废话已经说够了.接下来让我们直奔重点吧.",
      "你为什么还活着？",
      "It seems I pushed myself so much with limited dust",
      "毕竟，反射太弱了...",
      "然而你还是无法逃脱你的命运。",
      "你欠下的一切将会化作业障,最终阻拦你自己.",
      "我可一点都不想休息，同样也一点都不想让你休息.",
      "我仍知道你的灵魂是由何种物质构成的.",
      "所以这次我将会确保你再也活不下来了.",
      "你怎么做得到?你居然挺过了第二次...",
      "我不明白你为什么要做这一切,做这些毁灭我们史莱姆美丽迷梦的事情.",
      "我还是不会放弃。",
      "你做的每一件事都会有同样的结果.",
      "你无法逃脱你的罪恶"
    ]
  },
  {
    "TypeName": "JudgementSlime",
    "Namespace": "AFKPETS.NPCs.PoliticianSlime",
    "Method": "NPCLoot",
    "Contents": [
      "抱歉了朋友，我的力量还不够强大",
      "但是我现在终于可以去见我的朋友了"
    ]
  },
  {
    "TypeName": "NightmareAmplifierSlime",
    "Namespace": "AFKPETS.NPCs.PoliticianSlime",
    "Method": "AI",
    "Contents": [
      "你觉得你可以逃避掉审判,",
      "然而你所践踏的一切生命,",
      "都将会来阻止你的脚步.",
      "你将止步于此，并用你纯净的心灵荡涤肮脏的灵魂.",
      "我会让你看看,那些被你杀死的生灵前一刻看到的景象.",
      "别担心,你的一生快要走完了.",
      "我会让你感受,你曾经所做的一切."
    ]
  },
  {
    "TypeName": "NightmareAmplifierSlime",
    "Namespace": "AFKPETS.NPCs.PoliticianSlime",
    "Method": "NPCLoot",
    "Contents": [
      "你觉得你的噩梦会逝去吗?"
    ]
  },
  {
    "TypeName": "PoliticianSlime",
    "Namespace": "AFKPETS.NPCs.PoliticianSlime",
    "Method": "AI",
    "Contents": [
      "做的不错，第一次有人能将我的盔甲彻底击溃.",
      "但我已经决定了，要将你彻底逐出这里!",
      "你觉得你能比我更加了解封位墙的妙用?",
      "-提示标志-  偏转墙!",
      "我要再构筑一堵墙，而僵尸会为我承担一切的.",
      "-提示标志-  旋转墙!",
      "史莱姆角斗士,我需要你们的帮助!"
    ]
  },
  {
    "TypeName": "PoliticianSlime",
    "Namespace": "AFKPETS.NPCs.PoliticianSlime",
    "Method": "NPCLoot",
    "Contents": [
      "我的躯体也许会死去，但我的魔发将会为我复仇",
      "-复活-  雄伟长发"
    ]
  },
  {
    "TypeName": "PoliticianSlimeArmor",
    "Namespace": "AFKPETS.NPCs.PoliticianSlime",
    "Method": "AI",
    "Contents": [
      "你曾经所做的一切…屠戮,揭示了你真正的特质.",
      "现在,是时候把你驱逐出去了...从这个世界.",
      "这具盔甲是史莱姆王国当中最棒的工匠锻造的...",
      "让我展示它的潜力。"
    ]
  },
  {
    "TypeName": "PoliticianSlimeArmor",
    "Namespace": "AFKPETS.NPCs.PoliticianSlime",
    "Method": "NPCLoot",
    "Contents": [
      "你觉得我的护甲坏了我就会死吗？",
      "那是假新闻"
    ]
  }
]