[
  {
    "TypeName": "AFKPETSGlobalNPC",
    "Namespace": "AFKPETS.NPCs",
    "Method": "AI",
    "Contents": [
      "你现在看不到我了.",
      "癫狂的拜月邪教徒已经唤醒了你内心的噩梦.",
      "困境已成定局",
      "Time for democracy",
      "你的噩梦成真了。",
      "你的噩梦成真了。"
    ]
  },
  {
    "TypeName": "EnragedEyeofCthulhu",
    "Namespace": "AFKPETS.NPCs",
    "Method": "AI",
    "Contents": [
      "我不能再让你踏上他们的老路.",
      "克苏鲁之眼重获新生，并且它将用这崭新的姿态保护它的兄弟们.",
      "好了. 现在,感受我的愤怒吧.",
      "噩梦已被激怒."
    ]
  },
  {
    "TypeName": "VoidWatcher",
    "Namespace": "AFKPETS.NPCs",
    "Method": "AI",
    "Contents": [
      "在今天的黎明到来之前，这片大陆之间只能剩下一个强者.",
      "当然我不指望你能够打败他们.",
      "你是不是觉得一切都完了?",
      "他将为他逝去的灵魂以及支离破碎的记忆来向你报仇.",
      "或许你真的能打败我们,但她又会把我们修好."
    ]
  }
]